8797067509790;8797069541406;8797513482859;mediaContainer;;false
8797067575326;8797069574174;8797513515627;mediaContainer;;false
8797067640862;8797069606942;8797513548395;mediaContainer;;false
8797067706398;8797069639710;8797513581163;mediaContainer;;false
8797067771934;8797069672478;8797513613931;mediaContainer;;false
8797067837470;8797069705246;8797513646699;mediaContainer;;false
8797067903006;8797069738014;8797513679467;mediaContainer;;false
8797067968542;8797069770782;8797513712235;mediaContainer;;false
8797068034078;8797069803550;8797513745003;mediaContainer;;false
8797068099614;8797069836318;8797513777771;mediaContainer;;false
8797068165150;8797069869086;8797513810539;mediaContainer;;false
8797068230686;8797069901854;8797513843307;mediaContainer;;false
8797068296222;8797069934622;8797513876075;mediaContainer;;false
8797068361758;8797069967390;8797513908843;mediaContainer;;false
8797068427294;8797070000158;8797513941611;mediaContainer;;false
8797068492830;8797070032926;8797513974379;mediaContainer;;false
8797068558366;8797070065694;8797514007147;mediaContainer;;false
8797068623902;8797070098462;8797514039915;mediaContainer;;false
8797068689438;8797070131230;8797514072683;mediaContainer;;false
8797068754974;8797070163998;8797514105451;mediaContainer;;false
