[2020-01-27T13:06:12.685+0400][0.029s] Using Concurrent Mark Sweep
[2020-01-27T13:06:12.685+0400][0.030s] Heap address: 0x00000000e0000000, size: 512 MB, Compressed Oops mode: 32-bit
[2020-01-27T13:06:20.691+0400][8.035s] GC(0) Pause Young (Allocation Failure)
[2020-01-27T13:06:20.691+0400][8.035s] GC(0) Using 4 workers of 4 for evacuation
[2020-01-27T13:06:20.721+0400][8.065s] GC(0) ParNew: 87424K->9586K(109248K)
[2020-01-27T13:06:20.721+0400][8.065s] GC(0) CMS: 0K->0K(393216K)
[2020-01-27T13:06:20.721+0400][8.065s] GC(0) Metaspace: 22419K->22419K(1069056K)
[2020-01-27T13:06:20.721+0400][8.065s] GC(0) Pause Young (Allocation Failure) 85M->9M(490M) 30.604ms
[2020-01-27T13:06:20.721+0400][8.065s] GC(0) User=0.11s Sys=0.02s Real=0.03s
[2020-01-27T13:06:20.724+0400][8.069s] GC(1) Pause Initial Mark
[2020-01-27T13:06:20.729+0400][8.073s] GC(1) Pause Initial Mark 14M->14M(490M) 4.389ms
[2020-01-27T13:06:20.729+0400][8.073s] GC(1) User=0.00s Sys=0.00s Real=0.01s
[2020-01-27T13:06:20.729+0400][8.073s] GC(1) Concurrent Mark
[2020-01-27T13:06:20.730+0400][8.074s] GC(1) Using 4 workers of 4 for marking
[2020-01-27T13:06:20.733+0400][8.077s] GC(1) Concurrent Mark 3.719ms
[2020-01-27T13:06:20.733+0400][8.077s] GC(1) User=0.03s Sys=0.03s Real=0.00s
[2020-01-27T13:06:20.734+0400][8.078s] GC(1) Concurrent Preclean
[2020-01-27T13:06:20.736+0400][8.081s] GC(1) Concurrent Preclean 2.757ms
[2020-01-27T13:06:20.737+0400][8.081s] GC(1) User=0.00s Sys=0.00s Real=0.00s
[2020-01-27T13:06:20.737+0400][8.081s] GC(1) Concurrent Abortable Preclean
[2020-01-27T13:06:23.104+0400][10.448s] GC(2) Pause Young (Allocation Failure)
[2020-01-27T13:06:23.104+0400][10.448s] GC(2) Using 4 workers of 4 for evacuation
[2020-01-27T13:06:23.117+0400][10.462s] GC(2) ParNew: 97010K->14175K(109248K)
[2020-01-27T13:06:23.117+0400][10.462s] GC(2) CMS: 0K->0K(393216K)
[2020-01-27T13:06:23.118+0400][10.462s] GC(2) Metaspace: 28267K->28267K(1075200K)
[2020-01-27T13:06:23.118+0400][10.462s] GC(2) Pause Young (Allocation Failure) 94M->13M(490M) 14.077ms
[2020-01-27T13:06:23.118+0400][10.462s] GC(2) User=0.11s Sys=0.00s Real=0.01s
[2020-01-27T13:06:23.892+0400][11.236s] GC(1) Concurrent Abortable Preclean 3155.299ms
[2020-01-27T13:06:23.892+0400][11.236s] GC(1) User=8.39s Sys=0.84s Real=3.15s
[2020-01-27T13:06:23.892+0400][11.236s] GC(1) Pause Remark
[2020-01-27T13:06:23.892+0400][11.237s] GC(3) Pause Young (CMS Final Remark)
[2020-01-27T13:06:23.892+0400][11.237s] GC(3) Using 4 workers of 4 for evacuation
[2020-01-27T13:06:23.906+0400][11.250s] GC(3) ParNew: 59053K->16964K(109248K)
[2020-01-27T13:06:23.906+0400][11.250s] GC(3) CMS: 0K->0K(393216K)
[2020-01-27T13:06:23.906+0400][11.250s] GC(3) Metaspace: 32746K->32746K(1079296K)
[2020-01-27T13:06:23.906+0400][11.250s] GC(3) Pause Young (CMS Final Remark) 57M->16M(490M) 13.785ms
[2020-01-27T13:06:23.906+0400][11.250s] GC(3) User=0.08s Sys=0.00s Real=0.01s
[2020-01-27T13:06:23.920+0400][11.265s] GC(1) Pause Remark 57M->16M(490M) 28.390ms
[2020-01-27T13:06:23.920+0400][11.265s] GC(1) User=0.09s Sys=0.00s Real=0.03s
[2020-01-27T13:06:23.920+0400][11.265s] GC(1) Concurrent Sweep
[2020-01-27T13:06:23.920+0400][11.265s] GC(1) Concurrent Sweep 0.076ms
[2020-01-27T13:06:23.920+0400][11.265s] GC(1) User=0.00s Sys=0.00s Real=0.00s
[2020-01-27T13:06:23.920+0400][11.265s] GC(1) Concurrent Reset
[2020-01-27T13:06:23.925+0400][11.270s] GC(1) Concurrent Reset 4.940ms
[2020-01-27T13:06:23.926+0400][11.270s] GC(1) User=0.00s Sys=0.00s Real=0.00s
[2020-01-27T13:06:23.926+0400][11.270s] GC(1) Old: 0K->0K(393216K)
[2020-01-27T13:06:25.563+0400][12.907s] GC(4) Pause Young (Allocation Failure)
[2020-01-27T13:06:25.563+0400][12.907s] GC(4) Using 4 workers of 4 for evacuation
[2020-01-27T13:06:25.580+0400][12.924s] GC(4) ParNew: 104381K->19477K(109248K)
[2020-01-27T13:06:25.580+0400][12.924s] GC(4) CMS: 0K->0K(393216K)
[2020-01-27T13:06:25.580+0400][12.924s] GC(4) Metaspace: 36969K->36969K(1083392K)
[2020-01-27T13:06:25.580+0400][12.924s] GC(4) Pause Young (Allocation Failure) 101M->19M(490M) 17.131ms
[2020-01-27T13:06:25.580+0400][12.924s] GC(4) User=0.08s Sys=0.02s Real=0.02s
[2020-01-27T13:06:25.853+0400][13.197s] GC(5) Pause Young (Allocation Failure)
[2020-01-27T13:06:25.853+0400][13.198s] GC(5) Using 4 workers of 4 for evacuation
[2020-01-27T13:06:25.872+0400][13.216s] GC(5) ParNew: 106901K->21824K(109248K)
[2020-01-27T13:06:25.872+0400][13.216s] GC(5) CMS: 0K->200K(393216K)
[2020-01-27T13:06:25.872+0400][13.216s] GC(5) Metaspace: 38062K->38062K(1083392K)
[2020-01-27T13:06:25.872+0400][13.216s] GC(5) Pause Young (Allocation Failure) 104M->21M(490M) 18.712ms
[2020-01-27T13:06:25.872+0400][13.216s] GC(5) User=0.08s Sys=0.00s Real=0.02s
[2020-01-27T13:06:25.947+0400][13.291s] GC(6) Pause Young (Allocation Failure)
[2020-01-27T13:06:25.947+0400][13.291s] GC(6) Using 4 workers of 4 for evacuation
[2020-01-27T13:06:25.962+0400][13.306s] GC(6) ParNew: 109248K->21824K(109248K)
[2020-01-27T13:06:25.962+0400][13.306s] GC(6) CMS: 200K->200K(393216K)
[2020-01-27T13:06:25.962+0400][13.306s] GC(6) Metaspace: 38329K->38329K(1085440K)
[2020-01-27T13:06:25.962+0400][13.306s] GC(6) Pause Young (Allocation Failure) 106M->21M(490M) 14.973ms
[2020-01-27T13:06:25.962+0400][13.306s] GC(6) User=0.06s Sys=0.00s Real=0.01s
[2020-01-27T13:06:26.003+0400][13.348s] GC(7) Pause Young (Allocation Failure)
[2020-01-27T13:06:26.003+0400][13.348s] GC(7) Using 4 workers of 4 for evacuation
[2020-01-27T13:06:26.021+0400][13.366s] GC(7) ParNew: 109248K->21824K(109248K)
[2020-01-27T13:06:26.021+0400][13.366s] GC(7) CMS: 200K->205K(393216K)
[2020-01-27T13:06:26.022+0400][13.366s] GC(7) Metaspace: 38402K->38402K(1085440K)
[2020-01-27T13:06:26.022+0400][13.366s] GC(7) Pause Young (Allocation Failure) 106M->21M(490M) 18.381ms
[2020-01-27T13:06:26.022+0400][13.366s] GC(7) User=0.08s Sys=0.00s Real=0.02s
[2020-01-27T13:06:26.084+0400][13.428s] GC(8) Pause Young (Allocation Failure)
[2020-01-27T13:06:26.084+0400][13.428s] GC(8) Using 4 workers of 4 for evacuation
[2020-01-27T13:06:26.097+0400][13.441s] GC(8) ParNew: 109248K->21824K(109248K)
[2020-01-27T13:06:26.097+0400][13.441s] GC(8) CMS: 205K->1500K(393216K)
[2020-01-27T13:06:26.097+0400][13.441s] GC(8) Metaspace: 38593K->38593K(1085440K)
[2020-01-27T13:06:26.097+0400][13.441s] GC(8) Pause Young (Allocation Failure) 106M->22M(490M) 13.281ms
[2020-01-27T13:06:26.097+0400][13.441s] GC(8) User=0.06s Sys=0.00s Real=0.01s
[2020-01-27T13:06:26.252+0400][13.596s] GC(9) Pause Young (Allocation Failure)
[2020-01-27T13:06:26.252+0400][13.596s] GC(9) Using 4 workers of 4 for evacuation
[2020-01-27T13:06:26.278+0400][13.623s] GC(9) ParNew: 109248K->18524K(109248K)
[2020-01-27T13:06:26.278+0400][13.623s] GC(9) CMS: 1500K->10806K(393216K)
[2020-01-27T13:06:26.278+0400][13.623s] GC(9) Metaspace: 39093K->39093K(1085440K)
[2020-01-27T13:06:26.280+0400][13.623s] GC(9) Pause Young (Allocation Failure) 108M->28M(490M) 27.457ms
[2020-01-27T13:06:26.280+0400][13.623s] GC(9) User=0.11s Sys=0.00s Real=0.03s
[2020-01-27T13:06:27.144+0400][14.489s] GC(10) Pause Young (Allocation Failure)
[2020-01-27T13:06:27.145+0400][14.489s] GC(10) Using 4 workers of 4 for evacuation
[2020-01-27T13:06:27.162+0400][14.506s] GC(10) ParNew: 105948K->16469K(109248K)
[2020-01-27T13:06:27.162+0400][14.506s] GC(10) CMS: 10806K->12383K(393216K)
[2020-01-27T13:06:27.162+0400][14.506s] GC(10) Metaspace: 40528K->40528K(1085440K)
[2020-01-27T13:06:27.162+0400][14.506s] GC(10) Pause Young (Allocation Failure) 114M->28M(490M) 17.802ms
[2020-01-27T13:06:27.162+0400][14.506s] GC(10) User=0.08s Sys=0.00s Real=0.02s
[2020-01-27T13:06:27.980+0400][15.324s] GC(11) Pause Young (Allocation Failure)
[2020-01-27T13:06:27.980+0400][15.324s] GC(11) Using 4 workers of 4 for evacuation
[2020-01-27T13:06:27.999+0400][15.343s] GC(11) ParNew: 103893K->15072K(109248K)
[2020-01-27T13:06:27.999+0400][15.343s] GC(11) CMS: 12383K->14268K(393216K)
[2020-01-27T13:06:27.999+0400][15.343s] GC(11) Metaspace: 44009K->44009K(1089536K)
[2020-01-27T13:06:27.999+0400][15.343s] GC(11) Pause Young (Allocation Failure) 113M->28M(490M) 18.972ms
[2020-01-27T13:06:27.999+0400][15.343s] GC(11) User=0.14s Sys=0.00s Real=0.02s
[2020-01-27T13:06:28.571+0400][15.915s] GC(12) Pause Young (Allocation Failure)
[2020-01-27T13:06:28.571+0400][15.915s] GC(12) Using 4 workers of 4 for evacuation
[2020-01-27T13:06:28.591+0400][15.935s] GC(12) ParNew: 102496K->20558K(109248K)
[2020-01-27T13:06:28.591+0400][15.935s] GC(12) CMS: 14268K->16696K(393216K)
[2020-01-27T13:06:28.591+0400][15.935s] GC(12) Metaspace: 47773K->47773K(1093632K)
[2020-01-27T13:06:28.591+0400][15.935s] GC(12) Pause Young (Allocation Failure) 114M->36M(490M) 20.101ms
[2020-01-27T13:06:28.591+0400][15.935s] GC(12) User=0.08s Sys=0.00s Real=0.02s
[2020-01-27T13:06:28.901+0400][16.245s] GC(13) Pause Young (Allocation Failure)
[2020-01-27T13:06:28.901+0400][16.245s] GC(13) Using 4 workers of 4 for evacuation
[2020-01-27T13:06:28.918+0400][16.262s] GC(13) ParNew: 107982K->21824K(109248K)
[2020-01-27T13:06:28.918+0400][16.262s] GC(13) CMS: 16696K->17463K(393216K)
[2020-01-27T13:06:28.918+0400][16.262s] GC(13) Metaspace: 51424K->51424K(1095680K)
[2020-01-27T13:06:28.918+0400][16.262s] GC(13) Pause Young (Allocation Failure) 121M->38M(490M) 17.619ms
[2020-01-27T13:06:28.918+0400][16.262s] GC(13) User=0.08s Sys=0.00s Real=0.02s
[2020-01-27T13:06:29.019+0400][16.363s] GC(14) Pause Young (Allocation Failure)
[2020-01-27T13:06:29.019+0400][16.363s] GC(14) Using 4 workers of 4 for evacuation
[2020-01-27T13:06:29.036+0400][16.380s] GC(14) ParNew: 108886K->21824K(109248K)
[2020-01-27T13:06:29.036+0400][16.380s] GC(14) CMS: 17463K->17940K(393216K)
[2020-01-27T13:06:29.036+0400][16.380s] GC(14) Metaspace: 52205K->52205K(1097728K)
[2020-01-27T13:06:29.036+0400][16.380s] GC(14) Pause Young (Allocation Failure) 123M->38M(490M) 17.409ms
[2020-01-27T13:06:29.036+0400][16.380s] GC(14) User=0.08s Sys=0.00s Real=0.02s
[2020-01-27T13:06:29.627+0400][16.971s] GC(15) Pause Young (Allocation Failure)
[2020-01-27T13:06:29.627+0400][16.971s] GC(15) Using 4 workers of 4 for evacuation
[2020-01-27T13:06:29.672+0400][17.016s] GC(15) ParNew: 109248K->21824K(109248K)
[2020-01-27T13:06:29.672+0400][17.016s] GC(15) CMS: 17940K->39797K(393216K)
[2020-01-27T13:06:29.672+0400][17.016s] GC(15) Metaspace: 52764K->52764K(1097728K)
[2020-01-27T13:06:29.672+0400][17.016s] GC(15) Pause Young (Allocation Failure) 124M->60M(490M) 45.121ms
[2020-01-27T13:06:29.672+0400][17.016s] GC(15) User=0.28s Sys=0.02s Real=0.04s
[2020-01-27T13:06:31.436+0400][18.780s] GC(16) Pause Young (Allocation Failure)
[2020-01-27T13:06:31.436+0400][18.780s] GC(16) Using 4 workers of 4 for evacuation
[2020-01-27T13:06:31.463+0400][18.807s] GC(16) ParNew: 109248K->21824K(109248K)
[2020-01-27T13:06:31.463+0400][18.807s] GC(16) CMS: 39797K->55931K(393216K)
[2020-01-27T13:06:31.463+0400][18.807s] GC(16) Metaspace: 53785K->53785K(1097728K)
[2020-01-27T13:06:31.463+0400][18.808s] GC(16) Pause Young (Allocation Failure) 145M->75M(490M) 27.119ms
[2020-01-27T13:06:31.463+0400][18.808s] GC(16) User=0.06s Sys=0.00s Real=0.03s
[2020-01-27T13:06:32.182+0400][19.526s] GC(17) Pause Young (Allocation Failure)
[2020-01-27T13:06:32.182+0400][19.526s] GC(17) Using 4 workers of 4 for evacuation
[2020-01-27T13:06:32.201+0400][19.545s] GC(17) ParNew: 109248K->16830K(109248K)
[2020-01-27T13:06:32.201+0400][19.545s] GC(17) CMS: 55931K->72050K(393216K)
[2020-01-27T13:06:32.201+0400][19.545s] GC(17) Metaspace: 53912K->53912K(1097728K)
[2020-01-27T13:06:32.201+0400][19.545s] GC(17) Pause Young (Allocation Failure) 161M->86M(490M) 19.172ms
[2020-01-27T13:06:32.201+0400][19.545s] GC(17) User=0.08s Sys=0.00s Real=0.02s
[2020-01-27T13:06:33.400+0400][20.744s] GC(18) Pause Young (Allocation Failure)
[2020-01-27T13:06:33.400+0400][20.744s] GC(18) Using 4 workers of 4 for evacuation
[2020-01-27T13:06:33.407+0400][20.752s] GC(18) ParNew: 104217K->19974K(109248K)
[2020-01-27T13:06:33.407+0400][20.752s] GC(18) CMS: 72050K->72050K(393216K)
[2020-01-27T13:06:33.407+0400][20.752s] GC(18) Metaspace: 54130K->54130K(1097728K)
[2020-01-27T13:06:33.407+0400][20.752s] GC(18) Pause Young (Allocation Failure) 172M->89M(490M) 7.838ms
[2020-01-27T13:06:33.408+0400][20.752s] GC(18) User=0.09s Sys=0.00s Real=0.01s
[2020-01-27T13:06:34.232+0400][21.576s] GC(19) Pause Young (Allocation Failure)
[2020-01-27T13:06:34.232+0400][21.576s] GC(19) Using 4 workers of 4 for evacuation
[2020-01-27T13:06:34.237+0400][21.582s] GC(19) ParNew: 107398K->18339K(109248K)
[2020-01-27T13:06:34.237+0400][21.582s] GC(19) CMS: 72050K->72050K(393216K)
[2020-01-27T13:06:34.237+0400][21.582s] GC(19) Metaspace: 54604K->54604K(1099776K)
[2020-01-27T13:06:34.237+0400][21.582s] GC(19) Pause Young (Allocation Failure) 175M->88M(490M) 5.201ms
[2020-01-27T13:06:34.237+0400][21.582s] GC(19) User=0.00s Sys=0.00s Real=0.00s
[2020-01-27T13:07:24.226+0400][71.570s] GC(20) Pause Initial Mark
[2020-01-27T13:07:24.242+0400][71.586s] GC(20) Pause Initial Mark 135M->135M(490M) 16.255ms
[2020-01-27T13:07:24.242+0400][71.587s] GC(20) User=0.05s Sys=0.00s Real=0.02s
[2020-01-27T13:07:24.242+0400][71.587s] GC(20) Concurrent Mark
[2020-01-27T13:07:24.243+0400][71.587s] GC(20) Using 4 workers of 4 for marking
[2020-01-27T13:07:24.291+0400][71.635s] GC(20) Concurrent Mark 48.285ms
[2020-01-27T13:07:24.291+0400][71.635s] GC(20) User=0.19s Sys=0.00s Real=0.05s
[2020-01-27T13:07:24.291+0400][71.635s] GC(20) Concurrent Preclean
[2020-01-27T13:07:24.292+0400][71.637s] GC(20) Concurrent Preclean 1.530ms
[2020-01-27T13:07:24.292+0400][71.637s] GC(20) User=0.00s Sys=0.00s Real=0.00s
[2020-01-27T13:07:24.292+0400][71.637s] GC(20) Concurrent Abortable Preclean
[2020-01-27T13:07:30.339+0400][77.683s] GC(20) Concurrent Abortable Preclean 6046.212ms
[2020-01-27T13:07:30.339+0400][77.683s] GC(20) User=2.27s Sys=0.00s Real=6.05s
[2020-01-27T13:07:30.339+0400][77.683s] GC(20) Pause Remark
[2020-01-27T13:07:30.339+0400][77.683s] GC(21) Pause Young (CMS Final Remark)
[2020-01-27T13:07:30.339+0400][77.683s] GC(21) Using 4 workers of 4 for evacuation
[2020-01-27T13:07:30.347+0400][77.691s] GC(21) ParNew: 67941K->21824K(109248K)
[2020-01-27T13:07:30.347+0400][77.691s] GC(21) CMS: 72050K->72223K(393216K)
[2020-01-27T13:07:30.347+0400][77.691s] GC(21) Metaspace: 55107K->55107K(1099776K)
[2020-01-27T13:07:30.347+0400][77.691s] GC(21) Pause Young (CMS Final Remark) 136M->91M(490M) 7.715ms
[2020-01-27T13:07:30.347+0400][77.691s] GC(21) User=0.05s Sys=0.00s Real=0.01s
[2020-01-27T13:07:30.368+0400][77.712s] GC(20) Pause Remark 136M->91M(490M) 29.441ms
[2020-01-27T13:07:30.368+0400][77.713s] GC(20) User=0.06s Sys=0.00s Real=0.03s
[2020-01-27T13:07:30.368+0400][77.713s] GC(20) Concurrent Sweep
[2020-01-27T13:07:30.382+0400][77.726s] GC(20) Concurrent Sweep 13.068ms
[2020-01-27T13:07:30.382+0400][77.726s] GC(20) User=0.02s Sys=0.00s Real=0.01s
[2020-01-27T13:07:30.382+0400][77.726s] GC(20) Concurrent Reset
[2020-01-27T13:07:30.382+0400][77.726s] GC(20) Concurrent Reset 0.229ms
[2020-01-27T13:07:30.382+0400][77.726s] GC(20) User=0.00s Sys=0.00s Real=0.00s
[2020-01-27T13:07:30.382+0400][77.726s] GC(20) Old: 72050K->68678K(393216K)
[2020-01-27T13:09:21.669+0400][189.014s] GC(22) Pause Young (Allocation Failure)
[2020-01-27T13:09:21.669+0400][189.014s] GC(22) Using 4 workers of 4 for evacuation
[2020-01-27T13:09:21.687+0400][189.032s] GC(22) ParNew: 109248K->21824K(109248K)
[2020-01-27T13:09:21.687+0400][189.032s] GC(22) CMS: 68678K->73051K(393216K)
[2020-01-27T13:09:21.687+0400][189.032s] GC(22) Metaspace: 57304K->57304K(1101824K)
[2020-01-27T13:09:21.687+0400][189.032s] GC(22) Pause Young (Allocation Failure) 173M->92M(490M) 17.998ms
[2020-01-27T13:09:21.687+0400][189.032s] GC(22) User=0.06s Sys=0.00s Real=0.02s
[2020-01-27T13:09:21.750+0400][189.094s] GC(23) Pause Young (Allocation Failure)
[2020-01-27T13:09:21.750+0400][189.094s] GC(23) Using 4 workers of 4 for evacuation
[2020-01-27T13:09:21.761+0400][189.106s] GC(23) ParNew: 109248K->21824K(109248K)
[2020-01-27T13:09:21.761+0400][189.106s] GC(23) CMS: 73051K->73051K(393216K)
[2020-01-27T13:09:21.761+0400][189.106s] GC(23) Metaspace: 57311K->57311K(1101824K)
[2020-01-27T13:09:21.761+0400][189.106s] GC(23) Pause Young (Allocation Failure) 178M->92M(490M) 11.733ms
[2020-01-27T13:09:21.761+0400][189.106s] GC(23) User=0.00s Sys=0.00s Real=0.01s
[2020-01-27T13:09:21.888+0400][189.233s] GC(24) Pause Young (Allocation Failure)
[2020-01-27T13:09:21.889+0400][189.233s] GC(24) Using 4 workers of 4 for evacuation
[2020-01-27T13:09:21.901+0400][189.245s] GC(24) ParNew: 109248K->21824K(109248K)
[2020-01-27T13:09:21.901+0400][189.245s] GC(24) CMS: 73051K->73656K(393216K)
[2020-01-27T13:09:21.901+0400][189.245s] GC(24) Metaspace: 57319K->57319K(1101824K)
[2020-01-27T13:09:21.901+0400][189.245s] GC(24) Pause Young (Allocation Failure) 178M->93M(490M) 12.645ms
[2020-01-27T13:09:21.901+0400][189.245s] GC(24) User=0.00s Sys=0.00s Real=0.01s
[2020-01-27T13:09:22.113+0400][189.458s] GC(25) Pause Young (Allocation Failure)
[2020-01-27T13:09:22.113+0400][189.458s] GC(25) Using 4 workers of 4 for evacuation
[2020-01-27T13:09:22.125+0400][189.469s] GC(25) ParNew: 109222K->21824K(109248K)
[2020-01-27T13:09:22.125+0400][189.469s] GC(25) CMS: 73656K->73656K(393216K)
[2020-01-27T13:09:22.125+0400][189.469s] GC(25) Metaspace: 57390K->57390K(1101824K)
[2020-01-27T13:09:22.125+0400][189.469s] GC(25) Pause Young (Allocation Failure) 178M->93M(490M) 11.233ms
[2020-01-27T13:09:22.125+0400][189.469s] GC(25) User=0.09s Sys=0.00s Real=0.01s
[2020-01-27T13:09:22.317+0400][189.661s] GC(26) Pause Young (Allocation Failure)
[2020-01-27T13:09:22.317+0400][189.662s] GC(26) Using 4 workers of 4 for evacuation
[2020-01-27T13:09:22.331+0400][189.676s] GC(26) ParNew: 109248K->17719K(109248K)
[2020-01-27T13:09:22.331+0400][189.676s] GC(26) CMS: 73656K->79448K(393216K)
[2020-01-27T13:09:22.331+0400][189.676s] GC(26) Metaspace: 57541K->57541K(1101824K)
[2020-01-27T13:09:22.331+0400][189.676s] GC(26) Pause Young (Allocation Failure) 178M->94M(490M) 14.157ms
[2020-01-27T13:09:22.331+0400][189.676s] GC(26) User=0.08s Sys=0.00s Real=0.01s
[2020-01-27T13:09:22.524+0400][189.868s] GC(27) Pause Young (Allocation Failure)
[2020-01-27T13:09:22.524+0400][189.868s] GC(27) Using 4 workers of 4 for evacuation
[2020-01-27T13:09:22.536+0400][189.881s] GC(27) ParNew: 105143K->14765K(109248K)
[2020-01-27T13:09:22.536+0400][189.881s] GC(27) CMS: 79448K->80999K(393216K)
[2020-01-27T13:09:22.536+0400][189.881s] GC(27) Metaspace: 57590K->57590K(1101824K)
[2020-01-27T13:09:22.536+0400][189.881s] GC(27) Pause Young (Allocation Failure) 180M->93M(490M) 12.747ms
[2020-01-27T13:09:22.537+0400][189.881s] GC(27) User=0.08s Sys=0.00s Real=0.01s
[2020-01-27T13:09:23.631+0400][190.975s] GC(28) Pause Young (Allocation Failure)
[2020-01-27T13:09:23.631+0400][190.975s] GC(28) Using 4 workers of 4 for evacuation
[2020-01-27T13:09:23.644+0400][190.988s] GC(28) ParNew: 102189K->16202K(109248K)
[2020-01-27T13:09:23.644+0400][190.989s] GC(28) CMS: 80999K->81039K(393216K)
[2020-01-27T13:09:23.644+0400][190.989s] GC(28) Metaspace: 57742K->57742K(1101824K)
[2020-01-27T13:09:23.644+0400][190.989s] GC(28) Pause Young (Allocation Failure) 178M->94M(490M) 13.461ms
[2020-01-27T13:09:23.644+0400][190.989s] GC(28) User=0.11s Sys=0.00s Real=0.01s
[2020-01-27T13:09:53.447+0400][220.792s] GC(29) Pause Young (Allocation Failure)
[2020-01-27T13:09:53.447+0400][220.792s] GC(29) Using 4 workers of 4 for evacuation
[2020-01-27T13:09:53.477+0400][220.822s] GC(29) ParNew: 103626K->21824K(109248K)
[2020-01-27T13:09:53.477+0400][220.822s] GC(29) CMS: 81039K->87728K(393216K)
[2020-01-27T13:09:53.477+0400][220.822s] GC(29) Metaspace: 58150K->58150K(1101824K)
[2020-01-27T13:09:53.477+0400][220.822s] GC(29) Pause Young (Allocation Failure) 180M->106M(490M) 29.379ms
[2020-01-27T13:09:53.477+0400][220.822s] GC(29) User=0.13s Sys=0.00s Real=0.03s
[2020-01-27T13:10:00.389+0400][227.739s] GC(30) Pause Young (Allocation Failure)
[2020-01-27T13:10:00.389+0400][227.740s] GC(30) Using 4 workers of 4 for evacuation
[2020-01-27T13:10:00.419+0400][227.770s] GC(30) ParNew: 109248K->21824K(109248K)
[2020-01-27T13:10:00.419+0400][227.770s] GC(30) CMS: 87728K->104052K(393216K)
[2020-01-27T13:10:00.419+0400][227.770s] GC(30) Metaspace: 58831K->58831K(1103872K)
[2020-01-27T13:10:00.419+0400][227.770s] GC(30) Pause Young (Allocation Failure) 192M->122M(490M) 30.503ms
[2020-01-27T13:10:00.419+0400][227.770s] GC(30) User=0.13s Sys=0.00s Real=0.03s
[2020-01-27T13:10:03.072+0400][230.417s] GC(31) Pause Young (Allocation Failure)
[2020-01-27T13:10:03.072+0400][230.417s] GC(31) Using 4 workers of 4 for evacuation
[2020-01-27T13:10:03.084+0400][230.434s] GC(31) ParNew: 109248K->21824K(109248K)
[2020-01-27T13:10:03.084+0400][230.434s] GC(31) CMS: 104052K->112352K(393216K)
[2020-01-27T13:10:03.084+0400][230.434s] GC(31) Metaspace: 58861K->58861K(1103872K)
[2020-01-27T13:10:03.084+0400][230.434s] GC(31) Pause Young (Allocation Failure) 208M->131M(490M) 16.712ms
[2020-01-27T13:10:03.084+0400][230.434s] GC(31) User=0.05s Sys=0.02s Real=0.01s
[2020-01-27T13:10:04.539+0400][231.884s] GC(32) Pause Young (Allocation Failure)
[2020-01-27T13:10:04.539+0400][231.884s] GC(32) Using 4 workers of 4 for evacuation
[2020-01-27T13:10:04.550+0400][231.895s] GC(32) ParNew: 109248K->21824K(109248K)
[2020-01-27T13:10:04.550+0400][231.895s] GC(32) CMS: 112352K->118227K(393216K)
[2020-01-27T13:10:04.550+0400][231.895s] GC(32) Metaspace: 58885K->58885K(1103872K)
[2020-01-27T13:10:04.550+0400][231.895s] GC(32) Pause Young (Allocation Failure) 216M->136M(490M) 10.692ms
[2020-01-27T13:10:04.550+0400][231.895s] GC(32) User=0.05s Sys=0.02s Real=0.01s
[2020-01-27T13:10:05.659+0400][233.006s] GC(33) Pause Young (Allocation Failure)
[2020-01-27T13:10:05.659+0400][233.006s] GC(33) Using 4 workers of 4 for evacuation
[2020-01-27T13:10:05.659+0400][233.014s] GC(33) ParNew: 108767K->21824K(109248K)
[2020-01-27T13:10:05.659+0400][233.014s] GC(33) CMS: 118227K->119862K(393216K)
[2020-01-27T13:10:05.659+0400][233.014s] GC(33) Metaspace: 58919K->58919K(1103872K)
[2020-01-27T13:10:05.659+0400][233.014s] GC(33) Pause Young (Allocation Failure) 221M->138M(490M) 8.740ms
[2020-01-27T13:10:05.659+0400][233.014s] GC(33) User=0.00s Sys=0.00s Real=0.00s
[2020-01-27T13:10:07.730+0400][235.088s] GC(34) Pause Young (Allocation Failure)
[2020-01-27T13:10:07.730+0400][235.088s] GC(34) Using 4 workers of 4 for evacuation
[2020-01-27T13:10:07.745+0400][235.097s] GC(34) ParNew: 109248K->21824K(109248K)
[2020-01-27T13:10:07.745+0400][235.097s] GC(34) CMS: 119862K->120615K(393216K)
[2020-01-27T13:10:07.745+0400][235.097s] GC(34) Metaspace: 59246K->59246K(1103872K)
[2020-01-27T13:10:07.745+0400][235.097s] GC(34) Pause Young (Allocation Failure) 223M->139M(490M) 9.001ms
[2020-01-27T13:10:07.745+0400][235.097s] GC(34) User=0.06s Sys=0.00s Real=0.01s
[2020-01-27T13:10:13.333+0400][240.690s] GC(35) Pause Young (Allocation Failure)
[2020-01-27T13:10:13.333+0400][240.690s] GC(35) Using 4 workers of 4 for evacuation
[2020-01-27T13:10:13.349+0400][240.701s] GC(35) ParNew: 109248K->21824K(109248K)
[2020-01-27T13:10:13.349+0400][240.701s] GC(35) CMS: 120615K->125523K(393216K)
[2020-01-27T13:10:13.349+0400][240.701s] GC(35) Metaspace: 59272K->59272K(1103872K)
[2020-01-27T13:10:13.349+0400][240.701s] GC(35) Pause Young (Allocation Failure) 224M->143M(490M) 11.305ms
[2020-01-27T13:10:13.349+0400][240.701s] GC(35) User=0.06s Sys=0.00s Real=0.02s
[2020-01-27T13:10:20.403+0400][247.753s] GC(36) Pause Young (Allocation Failure)
[2020-01-27T13:10:20.403+0400][247.754s] GC(36) Using 4 workers of 4 for evacuation
[2020-01-27T13:10:20.421+0400][247.767s] GC(36) ParNew: 109248K->21824K(109248K)
[2020-01-27T13:10:20.421+0400][247.767s] GC(36) CMS: 125523K->135020K(393216K)
[2020-01-27T13:10:20.421+0400][247.767s] GC(36) Metaspace: 59278K->59278K(1103872K)
[2020-01-27T13:10:20.421+0400][247.767s] GC(36) Pause Young (Allocation Failure) 229M->153M(490M) 13.519ms
[2020-01-27T13:10:20.421+0400][247.767s] GC(36) User=0.14s Sys=0.00s Real=0.02s
[2020-01-27T13:10:21.236+0400][248.581s] GC(37) Pause Young (Allocation Failure)
[2020-01-27T13:10:21.236+0400][248.581s] GC(37) Using 4 workers of 4 for evacuation
[2020-01-27T13:10:21.238+0400][248.586s] GC(37) ParNew: 108914K->21824K(109248K)
[2020-01-27T13:10:21.238+0400][248.586s] GC(37) CMS: 135020K->135459K(393216K)
[2020-01-27T13:10:21.238+0400][248.586s] GC(37) Metaspace: 59340K->59340K(1103872K)
[2020-01-27T13:10:21.238+0400][248.586s] GC(37) Pause Young (Allocation Failure) 238M->153M(490M) 5.371ms
[2020-01-27T13:10:21.238+0400][248.586s] GC(37) User=0.00s Sys=0.00s Real=0.00s
[2020-01-27T13:10:21.500+0400][248.846s] GC(38) Pause Young (Allocation Failure)
[2020-01-27T13:10:21.500+0400][248.846s] GC(38) Using 4 workers of 4 for evacuation
[2020-01-27T13:10:21.508+0400][248.852s] GC(38) ParNew: 109248K->21824K(109248K)
[2020-01-27T13:10:21.508+0400][248.852s] GC(38) CMS: 135459K->137095K(393216K)
[2020-01-27T13:10:21.508+0400][248.852s] GC(38) Metaspace: 59346K->59346K(1103872K)
[2020-01-27T13:10:21.508+0400][248.852s] GC(38) Pause Young (Allocation Failure) 238M->155M(490M) 5.875ms
[2020-01-27T13:10:21.508+0400][248.852s] GC(38) User=0.00s Sys=0.00s Real=0.01s
[2020-01-27T13:10:27.367+0400][254.717s] GC(39) Pause Young (Allocation Failure)
[2020-01-27T13:10:27.367+0400][254.717s] GC(39) Using 4 workers of 4 for evacuation
[2020-01-27T13:10:27.367+0400][254.726s] GC(39) ParNew: 109248K->21824K(109248K)
[2020-01-27T13:10:27.367+0400][254.726s] GC(39) CMS: 137095K->138336K(393216K)
[2020-01-27T13:10:27.367+0400][254.726s] GC(39) Metaspace: 59409K->59409K(1103872K)
[2020-01-27T13:10:27.367+0400][254.726s] GC(39) Pause Young (Allocation Failure) 240M->156M(490M) 8.834ms
[2020-01-27T13:10:27.367+0400][254.726s] GC(39) User=0.00s Sys=0.00s Real=0.00s
[2020-01-27T13:10:27.845+0400][255.189s] GC(40) Pause Young (Allocation Failure)
[2020-01-27T13:10:27.845+0400][255.189s] GC(40) Using 4 workers of 4 for evacuation
[2020-01-27T13:10:27.854+0400][255.198s] GC(40) ParNew: 109248K->16675K(109248K)
[2020-01-27T13:10:27.854+0400][255.198s] GC(40) CMS: 138336K->141237K(393216K)
[2020-01-27T13:10:27.854+0400][255.198s] GC(40) Metaspace: 59420K->59420K(1103872K)
[2020-01-27T13:10:27.854+0400][255.198s] GC(40) Pause Young (Allocation Failure) 241M->154M(490M) 8.769ms
[2020-01-27T13:10:27.854+0400][255.198s] GC(40) User=0.00s Sys=0.00s Real=0.01s
[2020-01-27T13:11:07.132+0400][294.483s] GC(41) Pause Young (Allocation Failure)
[2020-01-27T13:11:07.132+0400][294.483s] GC(41) Using 4 workers of 4 for evacuation
[2020-01-27T13:11:07.142+0400][294.493s] GC(41) ParNew: 104099K->21824K(109248K)
[2020-01-27T13:11:07.142+0400][294.493s] GC(41) CMS: 141237K->141986K(393216K)
[2020-01-27T13:11:07.142+0400][294.493s] GC(41) Metaspace: 59519K->59519K(1103872K)
[2020-01-27T13:11:07.142+0400][294.493s] GC(41) Pause Young (Allocation Failure) 239M->159M(490M) 9.914ms
[2020-01-27T13:11:07.142+0400][294.493s] GC(41) User=0.08s Sys=0.00s Real=0.01s
[2020-01-27T13:11:07.272+0400][294.617s] GC(42) Pause Young (Allocation Failure)
[2020-01-27T13:11:07.272+0400][294.617s] GC(42) Using 4 workers of 4 for evacuation
[2020-01-27T13:11:07.282+0400][294.627s] GC(42) ParNew: 109248K->21824K(109248K)
[2020-01-27T13:11:07.282+0400][294.627s] GC(42) CMS: 141986K->143255K(393216K)
[2020-01-27T13:11:07.282+0400][294.627s] GC(42) Metaspace: 59545K->59545K(1103872K)
[2020-01-27T13:11:07.282+0400][294.627s] GC(42) Pause Young (Allocation Failure) 245M->161M(490M) 10.369ms
[2020-01-27T13:11:07.282+0400][294.627s] GC(42) User=0.06s Sys=0.00s Real=0.01s
[2020-01-27T13:11:47.516+0400][334.866s] GC(43) Pause Young (Allocation Failure)
[2020-01-27T13:11:47.516+0400][334.866s] GC(43) Using 4 workers of 4 for evacuation
[2020-01-27T13:11:47.535+0400][334.879s] GC(43) ParNew: 109248K->21824K(109248K)
[2020-01-27T13:11:47.535+0400][334.879s] GC(43) CMS: 143255K->148678K(393216K)
[2020-01-27T13:11:47.535+0400][334.879s] GC(43) Metaspace: 59640K->59640K(1103872K)
[2020-01-27T13:11:47.535+0400][334.879s] GC(43) Pause Young (Allocation Failure) 246M->166M(490M) 12.889ms
[2020-01-27T13:11:47.535+0400][334.879s] GC(43) User=0.06s Sys=0.00s Real=0.02s
[2020-01-27T13:12:37.230+0400][384.575s] GC(44) Pause Young (Allocation Failure)
[2020-01-27T13:12:37.230+0400][384.575s] GC(44) Using 4 workers of 4 for evacuation
[2020-01-27T13:12:37.238+0400][384.584s] GC(44) ParNew: 109248K->21824K(109248K)
[2020-01-27T13:12:37.238+0400][384.585s] GC(44) CMS: 148678K->153964K(393216K)
[2020-01-27T13:12:37.238+0400][384.585s] GC(44) Metaspace: 59652K->59652K(1103872K)
[2020-01-27T13:12:37.238+0400][384.585s] GC(44) Pause Young (Allocation Failure) 251M->171M(490M) 9.725ms
[2020-01-27T13:12:37.238+0400][384.585s] GC(44) User=0.06s Sys=0.00s Real=0.01s
[2020-01-27T13:13:27.437+0400][434.786s] GC(45) Pause Young (Allocation Failure)
[2020-01-27T13:13:27.437+0400][434.786s] GC(45) Using 4 workers of 4 for evacuation
[2020-01-27T13:13:27.445+0400][434.795s] GC(45) ParNew: 109248K->21824K(109248K)
[2020-01-27T13:13:27.445+0400][434.795s] GC(45) CMS: 153964K->159116K(393216K)
[2020-01-27T13:13:27.445+0400][434.795s] GC(45) Metaspace: 59681K->59681K(1103872K)
[2020-01-27T13:13:27.445+0400][434.795s] GC(45) Pause Young (Allocation Failure) 257M->176M(490M) 9.348ms
[2020-01-27T13:13:27.445+0400][434.795s] GC(45) User=0.00s Sys=0.00s Real=0.01s
[2020-01-27T13:14:23.884+0400][491.235s] GC(46) Pause Young (Allocation Failure)
[2020-01-27T13:14:23.884+0400][491.235s] GC(46) Using 4 workers of 4 for evacuation
[2020-01-27T13:14:23.884+0400][491.244s] GC(46) ParNew: 109248K->21824K(109248K)
[2020-01-27T13:14:23.884+0400][491.244s] GC(46) CMS: 159116K->162776K(393216K)
[2020-01-27T13:14:23.884+0400][491.244s] GC(46) Metaspace: 59716K->59716K(1103872K)
[2020-01-27T13:14:23.884+0400][491.244s] GC(46) Pause Young (Allocation Failure) 262M->180M(490M) 8.562ms
[2020-01-27T13:14:23.884+0400][491.244s] GC(46) User=0.00s Sys=0.00s Real=0.00s
[2020-01-27T13:14:43.450+0400][510.804s] GC(47) Pause Young (Allocation Failure)
[2020-01-27T13:14:43.450+0400][510.804s] GC(47) Using 4 workers of 4 for evacuation
[2020-01-27T13:14:43.465+0400][510.815s] GC(47) ParNew: 109248K->21824K(109248K)
[2020-01-27T13:14:43.465+0400][510.815s] GC(47) CMS: 162776K->167887K(393216K)
[2020-01-27T13:14:43.465+0400][510.815s] GC(47) Metaspace: 59739K->59739K(1103872K)
[2020-01-27T13:14:43.465+0400][510.815s] GC(47) Pause Young (Allocation Failure) 265M->185M(490M) 10.822ms
[2020-01-27T13:14:43.465+0400][510.815s] GC(47) User=0.11s Sys=0.00s Real=0.01s
[2020-01-27T13:14:43.637+0400][510.988s] GC(48) Pause Young (Allocation Failure)
[2020-01-27T13:14:43.637+0400][510.988s] GC(48) Using 4 workers of 4 for evacuation
[2020-01-27T13:14:43.637+0400][510.994s] GC(48) ParNew: 109248K->21824K(109248K)
[2020-01-27T13:14:43.637+0400][510.994s] GC(48) CMS: 167887K->168116K(393216K)
[2020-01-27T13:14:43.637+0400][510.994s] GC(48) Metaspace: 59739K->59739K(1103872K)
[2020-01-27T13:14:43.637+0400][510.994s] GC(48) Pause Young (Allocation Failure) 270M->185M(490M) 6.580ms
[2020-01-27T13:14:43.637+0400][510.995s] GC(48) User=0.00s Sys=0.00s Real=0.00s
[2020-01-27T13:20:09.134+0400][836.485s] GC(49) Pause Young (Allocation Failure)
[2020-01-27T13:20:09.134+0400][836.485s] GC(49) Using 4 workers of 4 for evacuation
[2020-01-27T13:20:09.153+0400][836.497s] GC(49) ParNew: 109248K->21824K(109248K)
[2020-01-27T13:20:09.153+0400][836.498s] GC(49) CMS: 168116K->171641K(393216K)
[2020-01-27T13:20:09.153+0400][836.498s] GC(49) Metaspace: 59845K->59845K(1103872K)
[2020-01-27T13:20:09.153+0400][836.498s] GC(49) Pause Young (Allocation Failure) 270M->188M(490M) 12.345ms
[2020-01-27T13:20:09.153+0400][836.498s] GC(49) User=0.06s Sys=0.00s Real=0.02s
[2020-01-27T13:20:09.195+0400][836.540s] GC(50) Pause Young (Allocation Failure)
[2020-01-27T13:20:09.195+0400][836.540s] GC(50) Using 4 workers of 4 for evacuation
[2020-01-27T13:20:09.203+0400][836.548s] GC(50) ParNew: 109248K->21824K(109248K)
[2020-01-27T13:20:09.203+0400][836.548s] GC(50) CMS: 171641K->172378K(393216K)
[2020-01-27T13:20:09.203+0400][836.548s] GC(50) Metaspace: 59869K->59869K(1103872K)
[2020-01-27T13:20:09.203+0400][836.548s] GC(50) Pause Young (Allocation Failure) 274M->189M(490M) 8.437ms
[2020-01-27T13:20:09.203+0400][836.548s] GC(50) User=0.06s Sys=0.00s Real=0.01s
[2020-01-27T13:20:09.804+0400][837.149s] GC(51) Pause Young (Allocation Failure)
[2020-01-27T13:20:09.804+0400][837.149s] GC(51) Using 4 workers of 4 for evacuation
[2020-01-27T13:20:09.816+0400][837.160s] GC(51) ParNew: 109248K->21824K(109248K)
[2020-01-27T13:20:09.816+0400][837.160s] GC(51) CMS: 172378K->174747K(393216K)
[2020-01-27T13:20:09.816+0400][837.160s] GC(51) Metaspace: 59982K->59982K(1103872K)
[2020-01-27T13:20:09.816+0400][837.160s] GC(51) Pause Young (Allocation Failure) 275M->191M(490M) 11.393ms
[2020-01-27T13:20:09.816+0400][837.160s] GC(51) User=0.06s Sys=0.00s Real=0.01s
[2020-01-27T13:20:11.273+0400][838.623s] GC(52) Pause Young (Allocation Failure)
[2020-01-27T13:20:11.273+0400][838.623s] GC(52) Using 4 workers of 4 for evacuation
[2020-01-27T13:20:11.279+0400][838.630s] GC(52) ParNew: 109248K->21824K(109248K)
[2020-01-27T13:20:11.279+0400][838.630s] GC(52) CMS: 174747K->177048K(393216K)
[2020-01-27T13:20:11.279+0400][838.630s] GC(52) Metaspace: 60086K->60086K(1103872K)
[2020-01-27T13:20:11.279+0400][838.630s] GC(52) Pause Young (Allocation Failure) 277M->194M(490M) 7.706ms
[2020-01-27T13:20:11.279+0400][838.630s] GC(52) User=0.08s Sys=0.00s Real=0.01s
[2020-01-27T13:20:11.342+0400][838.690s] GC(53) Pause Young (Allocation Failure)
[2020-01-27T13:20:11.342+0400][838.690s] GC(53) Using 4 workers of 4 for evacuation
[2020-01-27T13:20:11.342+0400][838.698s] GC(53) ParNew: 109248K->21824K(109248K)
[2020-01-27T13:20:11.342+0400][838.698s] GC(53) CMS: 177048K->178552K(393216K)
[2020-01-27T13:20:11.342+0400][838.698s] GC(53) Metaspace: 60104K->60104K(1103872K)
[2020-01-27T13:20:11.342+0400][838.698s] GC(53) Pause Young (Allocation Failure) 279M->195M(490M) 8.764ms
[2020-01-27T13:20:11.342+0400][838.699s] GC(53) User=0.00s Sys=0.00s Real=0.00s
[2020-01-27T13:20:13.782+0400][841.127s] GC(54) Pause Young (Allocation Failure)
[2020-01-27T13:20:13.783+0400][841.127s] GC(54) Using 4 workers of 4 for evacuation
[2020-01-27T13:20:13.798+0400][841.142s] GC(54) ParNew: 109248K->21824K(109248K)
[2020-01-27T13:20:13.798+0400][841.142s] GC(54) CMS: 178552K->180627K(393216K)
[2020-01-27T13:20:13.798+0400][841.142s] GC(54) Metaspace: 60196K->60196K(1103872K)
[2020-01-27T13:20:13.798+0400][841.142s] GC(54) Pause Young (Allocation Failure) 281M->197M(490M) 15.046ms
[2020-01-27T13:20:13.798+0400][841.142s] GC(54) User=0.05s Sys=0.00s Real=0.02s
[2020-01-27T13:20:13.829+0400][841.181s] GC(55) Pause Young (Allocation Failure)
[2020-01-27T13:20:13.829+0400][841.181s] GC(55) Using 4 workers of 4 for evacuation
[2020-01-27T13:20:13.844+0400][841.191s] GC(55) ParNew: 109248K->20839K(109248K)
[2020-01-27T13:20:13.844+0400][841.191s] GC(55) CMS: 180627K->185227K(393216K)
[2020-01-27T13:20:13.844+0400][841.191s] GC(55) Metaspace: 60196K->60196K(1103872K)
[2020-01-27T13:20:13.844+0400][841.191s] GC(55) Pause Young (Allocation Failure) 283M->201M(490M) 9.463ms
[2020-01-27T13:20:13.844+0400][841.191s] GC(55) User=0.08s Sys=0.00s Real=0.02s
[2020-01-27T13:20:15.292+0400][842.648s] GC(56) Pause Young (Allocation Failure)
[2020-01-27T13:20:15.292+0400][842.648s] GC(56) Using 4 workers of 4 for evacuation
[2020-01-27T13:20:15.307+0400][842.656s] GC(56) ParNew: 108263K->21824K(109248K)
[2020-01-27T13:20:15.307+0400][842.656s] GC(56) CMS: 185227K->185446K(393216K)
[2020-01-27T13:20:15.307+0400][842.656s] GC(56) Metaspace: 60318K->60318K(1103872K)
[2020-01-27T13:20:15.307+0400][842.656s] GC(56) Pause Young (Allocation Failure) 286M->202M(490M) 8.568ms
[2020-01-27T13:20:15.307+0400][842.656s] GC(56) User=0.06s Sys=0.00s Real=0.01s
[2020-01-27T13:20:15.339+0400][842.686s] GC(57) Pause Young (Allocation Failure)
[2020-01-27T13:20:15.339+0400][842.686s] GC(57) Using 4 workers of 4 for evacuation
[2020-01-27T13:20:15.339+0400][842.696s] GC(57) ParNew: 109219K->18902K(109248K)
[2020-01-27T13:20:15.339+0400][842.696s] GC(57) CMS: 185446K->191647K(393216K)
[2020-01-27T13:20:15.339+0400][842.696s] GC(57) Metaspace: 60320K->60320K(1103872K)
[2020-01-27T13:20:15.339+0400][842.696s] GC(57) Pause Young (Allocation Failure) 287M->205M(490M) 10.706ms
[2020-01-27T13:20:15.339+0400][842.697s] GC(57) User=0.00s Sys=0.00s Real=0.00s
[2020-01-27T13:20:18.049+0400][845.398s] GC(58) Pause Young (Allocation Failure)
[2020-01-27T13:20:18.049+0400][845.398s] GC(58) Using 4 workers of 4 for evacuation
[2020-01-27T13:20:18.049+0400][845.406s] GC(58) ParNew: 106326K->12706K(109248K)
[2020-01-27T13:20:18.049+0400][845.406s] GC(58) CMS: 191647K->191688K(393216K)
[2020-01-27T13:20:18.049+0400][845.406s] GC(58) Metaspace: 60425K->60425K(1103872K)
[2020-01-27T13:20:18.049+0400][845.406s] GC(58) Pause Young (Allocation Failure) 290M->199M(490M) 7.622ms
[2020-01-27T13:20:18.049+0400][845.406s] GC(58) User=0.00s Sys=0.00s Real=0.00s
[2020-01-27T13:20:18.080+0400][845.432s] GC(59) Pause Young (Allocation Failure)
[2020-01-27T13:20:18.080+0400][845.432s] GC(59) Using 4 workers of 4 for evacuation
[2020-01-27T13:20:18.096+0400][845.440s] GC(59) ParNew: 100130K->15049K(109248K)
[2020-01-27T13:20:18.096+0400][845.440s] GC(59) CMS: 191688K->195857K(393216K)
[2020-01-27T13:20:18.096+0400][845.440s] GC(59) Metaspace: 60426K->60426K(1103872K)
[2020-01-27T13:20:18.096+0400][845.440s] GC(59) Pause Young (Allocation Failure) 284M->205M(490M) 8.011ms
[2020-01-27T13:20:18.096+0400][845.440s] GC(59) User=0.02s Sys=0.00s Real=0.02s
[2020-01-27T13:20:18.149+0400][845.508s] GC(60) Pause Young (Allocation Failure)
[2020-01-27T13:20:18.149+0400][845.508s] GC(60) Using 4 workers of 4 for evacuation
[2020-01-27T13:20:18.165+0400][845.515s] GC(60) ParNew: 102473K->10435K(109248K)
[2020-01-27T13:20:18.165+0400][845.515s] GC(60) CMS: 195857K->196362K(393216K)
[2020-01-27T13:20:18.165+0400][845.515s] GC(60) Metaspace: 60452K->60452K(1103872K)
[2020-01-27T13:20:18.165+0400][845.515s] GC(60) Pause Young (Allocation Failure) 291M->201M(490M) 6.858ms
[2020-01-27T13:20:18.165+0400][845.515s] GC(60) User=0.09s Sys=0.00s Real=0.02s
[2020-01-27T13:20:20.021+0400][847.366s] GC(61) Pause Young (Allocation Failure)
[2020-01-27T13:20:20.021+0400][847.366s] GC(61) Using 4 workers of 4 for evacuation
[2020-01-27T13:20:20.023+0400][847.373s] GC(61) ParNew: 97859K->10939K(109248K)
[2020-01-27T13:20:20.023+0400][847.373s] GC(61) CMS: 196362K->196503K(393216K)
[2020-01-27T13:20:20.023+0400][847.373s] GC(61) Metaspace: 60537K->60537K(1105920K)
[2020-01-27T13:20:20.023+0400][847.373s] GC(61) Pause Young (Allocation Failure) 287M->202M(490M) 6.726ms
[2020-01-27T13:20:20.023+0400][847.373s] GC(61) User=0.00s Sys=0.00s Real=0.00s
[2020-01-27T13:20:20.123+0400][847.471s] GC(62) Pause Young (Allocation Failure)
[2020-01-27T13:20:20.123+0400][847.471s] GC(62) Using 4 workers of 4 for evacuation
[2020-01-27T13:20:20.131+0400][847.480s] GC(62) ParNew: 98363K->7608K(109248K)
[2020-01-27T13:20:20.131+0400][847.480s] GC(62) CMS: 196503K->200933K(393216K)
[2020-01-27T13:20:20.131+0400][847.480s] GC(62) Metaspace: 60542K->60542K(1105920K)
[2020-01-27T13:20:20.131+0400][847.480s] GC(62) Pause Young (Allocation Failure) 287M->203M(490M) 9.026ms
[2020-01-27T13:20:20.131+0400][847.480s] GC(62) User=0.00s Sys=0.00s Real=0.01s
[2020-01-27T13:20:20.131+0400][847.480s] GC(63) Pause Initial Mark
[2020-01-27T13:20:20.131+0400][847.482s] GC(63) Pause Initial Mark 205M->205M(490M) 1.396ms
[2020-01-27T13:20:20.131+0400][847.482s] GC(63) User=0.00s Sys=0.00s Real=0.00s
[2020-01-27T13:20:20.131+0400][847.482s] GC(63) Concurrent Mark
[2020-01-27T13:20:20.131+0400][847.482s] GC(63) Using 4 workers of 4 for marking
[2020-01-27T13:20:20.194+0400][847.542s] GC(63) Concurrent Mark 59.917ms
[2020-01-27T13:20:20.194+0400][847.542s] GC(63) User=0.30s Sys=0.00s Real=0.06s
[2020-01-27T13:20:20.194+0400][847.542s] GC(63) Concurrent Preclean
[2020-01-27T13:20:20.194+0400][847.545s] GC(63) Concurrent Preclean 3.047ms
[2020-01-27T13:20:20.194+0400][847.545s] GC(63) User=0.00s Sys=0.00s Real=0.00s
[2020-01-27T13:20:20.194+0400][847.545s] GC(63) Concurrent Abortable Preclean
[2020-01-27T13:20:22.584+0400][849.938s] GC(64) Pause Young (Allocation Failure)
[2020-01-27T13:20:22.584+0400][849.938s] GC(64) Using 4 workers of 4 for evacuation
[2020-01-27T13:20:22.584+0400][849.942s] GC(64) ParNew: 95032K->5937K(109248K)
[2020-01-27T13:20:22.584+0400][849.942s] GC(64) CMS: 200933K->201057K(393216K)
[2020-01-27T13:20:22.584+0400][849.942s] GC(64) Metaspace: 60634K->60634K(1105920K)
[2020-01-27T13:20:22.584+0400][849.942s] GC(64) Pause Young (Allocation Failure) 289M->202M(490M) 4.273ms
[2020-01-27T13:20:22.584+0400][849.942s] GC(64) User=0.00s Sys=0.00s Real=0.00s
[2020-01-27T13:20:22.632+0400][849.976s] GC(65) Pause Young (Allocation Failure)
[2020-01-27T13:20:22.632+0400][849.976s] GC(65) Using 4 workers of 4 for evacuation
[2020-01-27T13:20:22.636+0400][849.980s] GC(65) ParNew: 93361K->5475K(109248K)
[2020-01-27T13:20:22.636+0400][849.980s] GC(65) CMS: 201057K->201754K(393216K)
[2020-01-27T13:20:22.636+0400][849.980s] GC(65) Metaspace: 60634K->60634K(1105920K)
[2020-01-27T13:20:22.636+0400][849.980s] GC(65) Pause Young (Allocation Failure) 287M->202M(490M) 4.375ms
[2020-01-27T13:20:22.636+0400][849.980s] GC(65) User=0.00s Sys=0.00s Real=0.00s
[2020-01-27T13:20:22.636+0400][849.981s] GC(63) Concurrent Abortable Preclean 2435.773ms
[2020-01-27T13:20:22.636+0400][849.981s] GC(63) User=1.25s Sys=0.06s Real=2.44s
[2020-01-27T13:20:22.636+0400][849.981s] GC(63) Pause Remark
[2020-01-27T13:20:22.636+0400][849.981s] GC(66) Pause Young (CMS Final Remark)
[2020-01-27T13:20:22.636+0400][849.981s] GC(66) Using 4 workers of 4 for evacuation
[2020-01-27T13:20:22.636+0400][849.985s] GC(66) ParNew: 7174K->8017K(109248K)
[2020-01-27T13:20:22.636+0400][849.985s] GC(66) CMS: 201754K->201926K(393216K)
[2020-01-27T13:20:22.636+0400][849.985s] GC(66) Metaspace: 60634K->60634K(1105920K)
[2020-01-27T13:20:22.636+0400][849.985s] GC(66) Pause Young (CMS Final Remark) 204M->205M(490M) 3.994ms
[2020-01-27T13:20:22.636+0400][849.985s] GC(66) User=0.00s Sys=0.00s Real=0.00s
[2020-01-27T13:20:22.668+0400][850.015s] GC(63) Pause Remark 204M->205M(490M) 34.534ms
[2020-01-27T13:20:22.668+0400][850.015s] GC(63) User=0.03s Sys=0.00s Real=0.03s
[2020-01-27T13:20:22.668+0400][850.015s] GC(63) Concurrent Sweep
[2020-01-27T13:20:22.699+0400][850.058s] GC(63) Concurrent Sweep 42.548ms
[2020-01-27T13:20:22.699+0400][850.058s] GC(63) User=0.11s Sys=0.00s Real=0.03s
[2020-01-27T13:20:22.699+0400][850.058s] GC(63) Concurrent Reset
[2020-01-27T13:20:22.699+0400][850.058s] GC(63) Concurrent Reset 0.429ms
[2020-01-27T13:20:22.699+0400][850.058s] GC(63) User=0.00s Sys=0.00s Real=0.00s
[2020-01-27T13:20:22.699+0400][850.058s] GC(63) Old: 200933K->124665K(393216K)
[2020-01-27T13:20:24.026+0400][851.385s] GC(67) Pause Young (Allocation Failure)
[2020-01-27T13:20:24.026+0400][851.385s] GC(67) Using 4 workers of 4 for evacuation
[2020-01-27T13:20:24.041+0400][851.390s] GC(67) ParNew: 95441K->5159K(109248K)
[2020-01-27T13:20:24.041+0400][851.390s] GC(67) CMS: 124665K->125388K(393216K)
[2020-01-27T13:20:24.041+0400][851.390s] GC(67) Metaspace: 60459K->60459K(1105920K)
[2020-01-27T13:20:24.041+0400][851.390s] GC(67) Pause Young (Allocation Failure) 214M->127M(490M) 5.017ms
[2020-01-27T13:20:24.041+0400][851.390s] GC(67) User=0.08s Sys=0.00s Real=0.01s
[2020-01-27T13:20:24.057+0400][851.414s] GC(68) Pause Young (Allocation Failure)
[2020-01-27T13:20:24.057+0400][851.414s] GC(68) Using 4 workers of 4 for evacuation
[2020-01-27T13:20:24.073+0400][851.418s] GC(68) ParNew: 92583K->5601K(109248K)
[2020-01-27T13:20:24.073+0400][851.418s] GC(68) CMS: 125388K->125553K(393216K)
[2020-01-27T13:20:24.073+0400][851.418s] GC(68) Metaspace: 60459K->60459K(1105920K)
[2020-01-27T13:20:24.073+0400][851.418s] GC(68) Pause Young (Allocation Failure) 212M->128M(490M) 3.531ms
[2020-01-27T13:20:24.073+0400][851.418s] GC(68) User=0.06s Sys=0.00s Real=0.02s
[2020-01-27T13:25:09.859+0400][1137.204s] GC(69) Pause Young (Allocation Failure)
[2020-01-27T13:25:09.859+0400][1137.204s] GC(69) Using 4 workers of 4 for evacuation
[2020-01-27T13:25:09.859+0400][1137.209s] GC(69) ParNew: 93025K->4960K(109248K)
[2020-01-27T13:25:09.859+0400][1137.209s] GC(69) CMS: 125553K->125832K(393216K)
[2020-01-27T13:25:09.859+0400][1137.209s] GC(69) Metaspace: 60640K->60640K(1105920K)
[2020-01-27T13:25:09.859+0400][1137.209s] GC(69) Pause Young (Allocation Failure) 213M->127M(490M) 4.721ms
[2020-01-27T13:25:09.859+0400][1137.209s] GC(69) User=0.00s Sys=0.00s Real=0.00s
[2020-01-27T13:25:09.906+0400][1137.254s] GC(70) Pause Young (Allocation Failure)
[2020-01-27T13:25:09.906+0400][1137.254s] GC(70) Using 4 workers of 4 for evacuation
[2020-01-27T13:25:09.906+0400][1137.259s] GC(70) ParNew: 92384K->6247K(109248K)
[2020-01-27T13:25:09.906+0400][1137.259s] GC(70) CMS: 125832K->126461K(393216K)
[2020-01-27T13:25:09.906+0400][1137.259s] GC(70) Metaspace: 60655K->60655K(1105920K)
[2020-01-27T13:25:09.906+0400][1137.259s] GC(70) Pause Young (Allocation Failure) 213M->129M(490M) 5.163ms
[2020-01-27T13:25:09.906+0400][1137.259s] GC(70) User=0.00s Sys=0.00s Real=0.00s
[2020-01-27T13:25:10.003+0400][1137.357s] GC(71) Pause Young (Allocation Failure)
[2020-01-27T13:25:10.003+0400][1137.358s] GC(71) Using 4 workers of 4 for evacuation
[2020-01-27T13:25:10.003+0400][1137.362s] GC(71) ParNew: 93671K->5890K(109248K)
[2020-01-27T13:25:10.003+0400][1137.362s] GC(71) CMS: 126461K->126584K(393216K)
[2020-01-27T13:25:10.003+0400][1137.362s] GC(71) Metaspace: 60765K->60765K(1105920K)
[2020-01-27T13:25:10.003+0400][1137.362s] GC(71) Pause Young (Allocation Failure) 214M->129M(490M) 4.587ms
[2020-01-27T13:25:10.003+0400][1137.362s] GC(71) User=0.00s Sys=0.00s Real=0.00s
[2020-01-27T13:25:16.164+0400][1143.512s] GC(72) Pause Young (Allocation Failure)
[2020-01-27T13:25:16.164+0400][1143.512s] GC(72) Using 4 workers of 4 for evacuation
[2020-01-27T13:25:16.174+0400][1143.519s] GC(72) ParNew: 93314K->13882K(109248K)
[2020-01-27T13:25:16.174+0400][1143.519s] GC(72) CMS: 126584K->127343K(393216K)
[2020-01-27T13:25:16.174+0400][1143.519s] GC(72) Metaspace: 60803K->60803K(1105920K)
[2020-01-27T13:25:16.174+0400][1143.519s] GC(72) Pause Young (Allocation Failure) 214M->137M(490M) 7.671ms
[2020-01-27T13:25:16.174+0400][1143.519s] GC(72) User=0.08s Sys=0.00s Real=0.01s
[2020-01-27T13:25:17.982+0400][1145.330s] GC(73) Pause Young (Allocation Failure)
[2020-01-27T13:25:17.982+0400][1145.330s] GC(73) Using 4 workers of 4 for evacuation
[2020-01-27T13:25:17.982+0400][1145.337s] GC(73) ParNew: 101306K->21824K(109248K)
[2020-01-27T13:25:17.982+0400][1145.338s] GC(73) CMS: 127343K->127463K(393216K)
[2020-01-27T13:25:17.982+0400][1145.338s] GC(73) Metaspace: 60820K->60820K(1105920K)
[2020-01-27T13:25:17.982+0400][1145.338s] GC(73) Pause Young (Allocation Failure) 223M->145M(490M) 7.645ms
[2020-01-27T13:25:17.982+0400][1145.338s] GC(73) User=0.00s Sys=0.00s Real=0.00s
[2020-01-27T13:25:19.469+0400][1146.820s] GC(74) Pause Young (Allocation Failure)
[2020-01-27T13:25:19.469+0400][1146.820s] GC(74) Using 4 workers of 4 for evacuation
[2020-01-27T13:25:19.479+0400][1146.828s] GC(74) ParNew: 109248K->21824K(109248K)
[2020-01-27T13:25:19.479+0400][1146.828s] GC(74) CMS: 127463K->130724K(393216K)
[2020-01-27T13:25:19.479+0400][1146.828s] GC(74) Metaspace: 60826K->60826K(1105920K)
[2020-01-27T13:25:19.479+0400][1146.829s] GC(74) Pause Young (Allocation Failure) 231M->148M(490M) 8.609ms
[2020-01-27T13:25:19.479+0400][1146.829s] GC(74) User=0.00s Sys=0.00s Real=0.01s
[2020-01-27T13:25:20.162+0400][1147.507s] GC(75) Pause Young (Allocation Failure)
[2020-01-27T13:25:20.162+0400][1147.507s] GC(75) Using 4 workers of 4 for evacuation
[2020-01-27T13:25:20.173+0400][1147.517s] GC(75) ParNew: 108834K->21824K(109248K)
[2020-01-27T13:25:20.173+0400][1147.517s] GC(75) CMS: 130724K->137947K(393216K)
[2020-01-27T13:25:20.173+0400][1147.517s] GC(75) Metaspace: 60833K->60833K(1105920K)
[2020-01-27T13:25:20.173+0400][1147.517s] GC(75) Pause Young (Allocation Failure) 233M->156M(490M) 9.613ms
[2020-01-27T13:25:20.173+0400][1147.517s] GC(75) User=0.06s Sys=0.00s Real=0.01s
[2020-01-27T13:25:20.500+0400][1147.845s] GC(76) Pause Young (Allocation Failure)
[2020-01-27T13:25:20.500+0400][1147.845s] GC(76) Using 4 workers of 4 for evacuation
[2020-01-27T13:25:20.504+0400][1147.849s] GC(76) ParNew: 108803K->19515K(109248K)
[2020-01-27T13:25:20.504+0400][1147.849s] GC(76) CMS: 137947K->137947K(393216K)
[2020-01-27T13:25:20.504+0400][1147.849s] GC(76) Metaspace: 60834K->60834K(1105920K)
[2020-01-27T13:25:20.505+0400][1147.849s] GC(76) Pause Young (Allocation Failure) 240M->153M(490M) 4.123ms
[2020-01-27T13:25:20.505+0400][1147.849s] GC(76) User=0.00s Sys=0.00s Real=0.01s
[2020-01-27T13:25:20.876+0400][1148.221s] GC(77) Pause Young (Allocation Failure)
[2020-01-27T13:25:20.876+0400][1148.221s] GC(77) Using 4 workers of 4 for evacuation
[2020-01-27T13:25:20.876+0400][1148.225s] GC(77) ParNew: 106619K->16595K(109248K)
[2020-01-27T13:25:20.876+0400][1148.225s] GC(77) CMS: 137947K->137947K(393216K)
[2020-01-27T13:25:20.876+0400][1148.225s] GC(77) Metaspace: 60836K->60836K(1105920K)
[2020-01-27T13:25:20.876+0400][1148.225s] GC(77) Pause Young (Allocation Failure) 238M->150M(490M) 3.602ms
[2020-01-27T13:25:20.876+0400][1148.225s] GC(77) User=0.00s Sys=0.00s Real=0.00s
[2020-01-27T13:25:21.128+0400][1148.476s] GC(78) Pause Young (Allocation Failure)
[2020-01-27T13:25:21.128+0400][1148.476s] GC(78) Using 4 workers of 4 for evacuation
[2020-01-27T13:25:21.136+0400][1148.480s] GC(78) ParNew: 104019K->18070K(109248K)
[2020-01-27T13:25:21.136+0400][1148.480s] GC(78) CMS: 137947K->137947K(393216K)
[2020-01-27T13:25:21.136+0400][1148.480s] GC(78) Metaspace: 60999K->60999K(1105920K)
[2020-01-27T13:25:21.136+0400][1148.480s] GC(78) Pause Young (Allocation Failure) 236M->152M(490M) 4.379ms
[2020-01-27T13:25:21.136+0400][1148.480s] GC(78) User=0.00s Sys=0.00s Real=0.01s
[2020-01-27T13:25:21.369+0400][1148.720s] GC(79) Pause Young (Allocation Failure)
[2020-01-27T13:25:21.369+0400][1148.720s] GC(79) Using 4 workers of 4 for evacuation
[2020-01-27T13:25:21.379+0400][1148.726s] GC(79) ParNew: 105494K->21824K(109248K)
[2020-01-27T13:25:21.379+0400][1148.726s] GC(79) CMS: 137947K->137947K(393216K)
[2020-01-27T13:25:21.379+0400][1148.726s] GC(79) Metaspace: 61185K->61185K(1105920K)
[2020-01-27T13:25:21.379+0400][1148.726s] GC(79) Pause Young (Allocation Failure) 237M->156M(490M) 6.051ms
[2020-01-27T13:25:21.379+0400][1148.726s] GC(79) User=0.11s Sys=0.00s Real=0.01s
[2020-01-27T13:25:21.508+0400][1148.852s] GC(80) Pause Young (Allocation Failure)
[2020-01-27T13:25:21.508+0400][1148.852s] GC(80) Using 4 workers of 4 for evacuation
[2020-01-27T13:25:21.510+0400][1148.858s] GC(80) ParNew: 109248K->20623K(109248K)
[2020-01-27T13:25:21.510+0400][1148.858s] GC(80) CMS: 137947K->140997K(393216K)
[2020-01-27T13:25:21.510+0400][1148.858s] GC(80) Metaspace: 61187K->61187K(1105920K)
[2020-01-27T13:25:21.510+0400][1148.858s] GC(80) Pause Young (Allocation Failure) 241M->157M(490M) 5.933ms
[2020-01-27T13:25:21.510+0400][1148.858s] GC(80) User=0.00s Sys=0.00s Real=0.00s
[2020-01-27T13:25:21.721+0400][1149.071s] GC(81) Pause Young (Allocation Failure)
[2020-01-27T13:25:21.721+0400][1149.071s] GC(81) Using 4 workers of 4 for evacuation
[2020-01-27T13:25:21.731+0400][1149.076s] GC(81) ParNew: 108047K->14192K(109248K)
[2020-01-27T13:25:21.731+0400][1149.076s] GC(81) CMS: 140997K->144068K(393216K)
[2020-01-27T13:25:21.731+0400][1149.076s] GC(81) Metaspace: 61220K->61220K(1105920K)
[2020-01-27T13:25:21.731+0400][1149.076s] GC(81) Pause Young (Allocation Failure) 243M->154M(490M) 5.842ms
[2020-01-27T13:25:21.731+0400][1149.077s] GC(81) User=0.09s Sys=0.00s Real=0.01s
[2020-01-27T13:25:22.292+0400][1149.639s] GC(82) Pause Young (Allocation Failure)
[2020-01-27T13:25:22.292+0400][1149.640s] GC(82) Using 4 workers of 4 for evacuation
[2020-01-27T13:25:22.292+0400][1149.645s] GC(82) ParNew: 101616K->8015K(109248K)
[2020-01-27T13:25:22.292+0400][1149.645s] GC(82) CMS: 144068K->146704K(393216K)
[2020-01-27T13:25:22.292+0400][1149.645s] GC(82) Metaspace: 61472K->61472K(1105920K)
[2020-01-27T13:25:22.292+0400][1149.645s] GC(82) Pause Young (Allocation Failure) 239M->151M(490M) 5.594ms
[2020-01-27T13:25:22.292+0400][1149.645s] GC(82) User=0.00s Sys=0.00s Real=0.00s
[2020-01-27T13:25:26.405+0400][1153.760s] GC(83) Pause Young (Allocation Failure)
[2020-01-27T13:25:26.405+0400][1153.760s] GC(83) Using 4 workers of 4 for evacuation
[2020-01-27T13:25:26.421+0400][1153.768s] GC(83) ParNew: 95439K->17118K(109248K)
[2020-01-27T13:25:26.421+0400][1153.768s] GC(83) CMS: 146704K->149941K(393216K)
[2020-01-27T13:25:26.421+0400][1153.768s] GC(83) Metaspace: 61485K->61485K(1105920K)
[2020-01-27T13:25:26.421+0400][1153.768s] GC(83) Pause Young (Allocation Failure) 236M->163M(490M) 8.004ms
[2020-01-27T13:25:26.421+0400][1153.768s] GC(83) User=0.06s Sys=0.00s Real=0.02s
[2020-01-27T13:25:28.351+0400][1155.695s] GC(84) Pause Young (Allocation Failure)
[2020-01-27T13:25:28.351+0400][1155.695s] GC(84) Using 4 workers of 4 for evacuation
[2020-01-27T13:25:28.360+0400][1155.704s] GC(84) ParNew: 104542K->21824K(109248K)
[2020-01-27T13:25:28.360+0400][1155.704s] GC(84) CMS: 149941K->152539K(393216K)
[2020-01-27T13:25:28.360+0400][1155.704s] GC(84) Metaspace: 61515K->61515K(1105920K)
[2020-01-27T13:25:28.360+0400][1155.704s] GC(84) Pause Young (Allocation Failure) 248M->170M(490M) 9.015ms
[2020-01-27T13:25:28.360+0400][1155.704s] GC(84) User=0.06s Sys=0.00s Real=0.01s
[2020-01-27T13:25:30.053+0400][1157.402s] GC(85) Pause Young (Allocation Failure)
[2020-01-27T13:25:30.053+0400][1157.402s] GC(85) Using 4 workers of 4 for evacuation
[2020-01-27T13:25:30.053+0400][1157.412s] GC(85) ParNew: 109248K->21824K(109248K)
[2020-01-27T13:25:30.053+0400][1157.412s] GC(85) CMS: 152539K->158375K(393216K)
[2020-01-27T13:25:30.053+0400][1157.412s] GC(85) Metaspace: 61537K->61537K(1105920K)
[2020-01-27T13:25:30.053+0400][1157.412s] GC(85) Pause Young (Allocation Failure) 255M->175M(490M) 9.817ms
[2020-01-27T13:25:30.053+0400][1157.412s] GC(85) User=0.00s Sys=0.00s Real=0.00s
[2020-01-27T13:25:30.956+0400][1158.312s] GC(86) Pause Young (Allocation Failure)
[2020-01-27T13:25:30.956+0400][1158.313s] GC(86) Using 4 workers of 4 for evacuation
[2020-01-27T13:25:30.971+0400][1158.321s] GC(86) ParNew: 108861K->21824K(109248K)
[2020-01-27T13:25:30.971+0400][1158.321s] GC(86) CMS: 158375K->161012K(393216K)
[2020-01-27T13:25:30.971+0400][1158.321s] GC(86) Metaspace: 61544K->61544K(1105920K)
[2020-01-27T13:25:30.971+0400][1158.321s] GC(86) Pause Young (Allocation Failure) 260M->178M(490M) 8.295ms
[2020-01-27T13:25:30.971+0400][1158.321s] GC(86) User=0.06s Sys=0.00s Real=0.01s
[2020-01-27T13:25:31.242+0400][1158.586s] GC(87) Pause Young (Allocation Failure)
[2020-01-27T13:25:31.242+0400][1158.586s] GC(87) Using 4 workers of 4 for evacuation
[2020-01-27T13:25:31.244+0400][1158.593s] GC(87) ParNew: 109001K->21824K(109248K)
[2020-01-27T13:25:31.244+0400][1158.593s] GC(87) CMS: 161012K->161916K(393216K)
[2020-01-27T13:25:31.244+0400][1158.593s] GC(87) Metaspace: 61556K->61556K(1105920K)
[2020-01-27T13:25:31.244+0400][1158.593s] GC(87) Pause Young (Allocation Failure) 263M->179M(490M) 7.545ms
[2020-01-27T13:25:31.244+0400][1158.593s] GC(87) User=0.00s Sys=0.00s Real=0.00s
[2020-01-27T13:25:31.505+0400][1158.850s] GC(88) Pause Young (Allocation Failure)
[2020-01-27T13:25:31.505+0400][1158.850s] GC(88) Using 4 workers of 4 for evacuation
[2020-01-27T13:25:31.505+0400][1158.856s] GC(88) ParNew: 109134K->21824K(109248K)
[2020-01-27T13:25:31.505+0400][1158.856s] GC(88) CMS: 161916K->162856K(393216K)
[2020-01-27T13:25:31.505+0400][1158.856s] GC(88) Metaspace: 61557K->61557K(1105920K)
[2020-01-27T13:25:31.505+0400][1158.856s] GC(88) Pause Young (Allocation Failure) 264M->180M(490M) 6.240ms
[2020-01-27T13:25:31.505+0400][1158.856s] GC(88) User=0.00s Sys=0.00s Real=0.00s
[2020-01-27T13:25:31.707+0400][1159.052s] GC(89) Pause Young (Allocation Failure)
[2020-01-27T13:25:31.707+0400][1159.052s] GC(89) Using 4 workers of 4 for evacuation
[2020-01-27T13:25:31.715+0400][1159.060s] GC(89) ParNew: 108791K->21824K(109248K)
[2020-01-27T13:25:31.715+0400][1159.060s] GC(89) CMS: 162856K->164343K(393216K)
[2020-01-27T13:25:31.715+0400][1159.060s] GC(89) Metaspace: 61571K->61571K(1105920K)
[2020-01-27T13:25:31.715+0400][1159.060s] GC(89) Pause Young (Allocation Failure) 265M->181M(490M) 7.911ms
[2020-01-27T13:25:31.715+0400][1159.060s] GC(89) User=0.00s Sys=0.00s Real=0.01s
[2020-01-27T13:25:31.847+0400][1159.191s] GC(90) Pause Young (Allocation Failure)
[2020-01-27T13:25:31.847+0400][1159.191s] GC(90) Using 4 workers of 4 for evacuation
[2020-01-27T13:25:31.856+0400][1159.200s] GC(90) ParNew: 109248K->21824K(109248K)
[2020-01-27T13:25:31.856+0400][1159.200s] GC(90) CMS: 164343K->171181K(393216K)
[2020-01-27T13:25:31.856+0400][1159.200s] GC(90) Metaspace: 61575K->61575K(1105920K)
[2020-01-27T13:25:31.856+0400][1159.200s] GC(90) Pause Young (Allocation Failure) 267M->188M(490M) 8.689ms
[2020-01-27T13:25:31.856+0400][1159.200s] GC(90) User=0.00s Sys=0.00s Real=0.01s
[2020-01-27T13:25:32.237+0400][1159.581s] GC(91) Pause Young (Allocation Failure)
[2020-01-27T13:25:32.237+0400][1159.581s] GC(91) Using 4 workers of 4 for evacuation
[2020-01-27T13:25:32.239+0400][1159.587s] GC(91) ParNew: 109248K->21824K(109248K)
[2020-01-27T13:25:32.239+0400][1159.587s] GC(91) CMS: 171181K->174125K(393216K)
[2020-01-27T13:25:32.239+0400][1159.587s] GC(91) Metaspace: 61588K->61588K(1105920K)
[2020-01-27T13:25:32.239+0400][1159.587s] GC(91) Pause Young (Allocation Failure) 273M->191M(490M) 5.612ms
[2020-01-27T13:25:32.239+0400][1159.587s] GC(91) User=0.00s Sys=0.00s Real=0.00s
[2020-01-27T13:25:32.330+0400][1159.680s] GC(92) Pause Young (Allocation Failure)
[2020-01-27T13:25:32.330+0400][1159.680s] GC(92) Using 4 workers of 4 for evacuation
[2020-01-27T13:25:32.340+0400][1159.684s] GC(92) ParNew: 109174K->21824K(109248K)
[2020-01-27T13:25:32.340+0400][1159.684s] GC(92) CMS: 174125K->174125K(393216K)
[2020-01-27T13:25:32.340+0400][1159.684s] GC(92) Metaspace: 61595K->61595K(1105920K)
[2020-01-27T13:25:32.340+0400][1159.684s] GC(92) Pause Young (Allocation Failure) 276M->191M(490M) 4.616ms
[2020-01-27T13:25:32.340+0400][1159.684s] GC(92) User=0.00s Sys=0.00s Real=0.01s
[2020-01-27T13:25:32.380+0400][1159.726s] GC(93) Pause Young (Allocation Failure)
[2020-01-27T13:25:32.380+0400][1159.726s] GC(93) Using 4 workers of 4 for evacuation
[2020-01-27T13:25:32.380+0400][1159.730s] GC(93) ParNew: 109248K->16522K(109248K)
[2020-01-27T13:25:32.380+0400][1159.730s] GC(93) CMS: 174125K->177359K(393216K)
[2020-01-27T13:25:32.380+0400][1159.730s] GC(93) Metaspace: 61598K->61598K(1105920K)
[2020-01-27T13:25:32.380+0400][1159.730s] GC(93) Pause Young (Allocation Failure) 276M->189M(490M) 4.718ms
[2020-01-27T13:25:32.380+0400][1159.730s] GC(93) User=0.00s Sys=0.00s Real=0.00s
[2020-01-27T13:25:32.612+0400][1159.960s] GC(94) Pause Young (Allocation Failure)
[2020-01-27T13:25:32.612+0400][1159.960s] GC(94) Using 4 workers of 4 for evacuation
[2020-01-27T13:25:32.620+0400][1159.965s] GC(94) ParNew: 103946K->10834K(109248K)
[2020-01-27T13:25:32.620+0400][1159.965s] GC(94) CMS: 177359K->181025K(393216K)
[2020-01-27T13:25:32.620+0400][1159.965s] GC(94) Metaspace: 61618K->61618K(1105920K)
[2020-01-27T13:25:32.620+0400][1159.966s] GC(94) Pause Young (Allocation Failure) 274M->187M(490M) 5.873ms
[2020-01-27T13:25:32.620+0400][1159.966s] GC(94) User=0.00s Sys=0.00s Real=0.01s
[2020-01-27T13:25:32.983+0400][1160.327s] GC(95) Pause Young (Allocation Failure)
[2020-01-27T13:25:32.983+0400][1160.327s] GC(95) Using 4 workers of 4 for evacuation
[2020-01-27T13:25:32.985+0400][1160.335s] GC(95) ParNew: 98258K->13400K(109248K)
[2020-01-27T13:25:32.985+0400][1160.335s] GC(95) CMS: 181025K->181120K(393216K)
[2020-01-27T13:25:32.985+0400][1160.335s] GC(95) Metaspace: 61632K->61632K(1105920K)
[2020-01-27T13:25:32.985+0400][1160.335s] GC(95) Pause Young (Allocation Failure) 272M->189M(490M) 7.350ms
[2020-01-27T13:25:32.985+0400][1160.335s] GC(95) User=0.00s Sys=0.00s Real=0.00s
[2020-01-27T13:25:41.067+0400][1168.416s] GC(96) Pause Young (Allocation Failure)
[2020-01-27T13:25:41.067+0400][1168.416s] GC(96) Using 4 workers of 4 for evacuation
[2020-01-27T13:25:41.067+0400][1168.420s] GC(96) ParNew: 100805K->17121K(109248K)
[2020-01-27T13:25:41.067+0400][1168.420s] GC(96) CMS: 181120K->181146K(393216K)
[2020-01-27T13:25:41.067+0400][1168.420s] GC(96) Metaspace: 61762K->61762K(1105920K)
[2020-01-27T13:25:41.067+0400][1168.420s] GC(96) Pause Young (Allocation Failure) 275M->193M(490M) 3.960ms
[2020-01-27T13:25:41.067+0400][1168.420s] GC(96) User=0.00s Sys=0.00s Real=0.00s
[2020-01-27T13:25:41.098+0400][1168.451s] GC(97) Pause Young (Allocation Failure)
[2020-01-27T13:25:41.098+0400][1168.451s] GC(97) Using 4 workers of 4 for evacuation
[2020-01-27T13:25:41.098+0400][1168.455s] GC(97) ParNew: 104545K->12526K(109248K)
[2020-01-27T13:25:41.098+0400][1168.455s] GC(97) CMS: 181146K->182008K(393216K)
[2020-01-27T13:25:41.098+0400][1168.455s] GC(97) Metaspace: 61762K->61762K(1105920K)
[2020-01-27T13:25:41.098+0400][1168.455s] GC(97) Pause Young (Allocation Failure) 278M->189M(490M) 4.383ms
[2020-01-27T13:25:41.098+0400][1168.455s] GC(97) User=0.00s Sys=0.00s Real=0.00s
[2020-01-27T13:25:44.769+0400][1172.115s] GC(98) Pause Young (Allocation Failure)
[2020-01-27T13:25:44.769+0400][1172.115s] GC(98) Using 4 workers of 4 for evacuation
[2020-01-27T13:25:44.779+0400][1172.124s] GC(98) ParNew: 99950K->17318K(109248K)
[2020-01-27T13:25:44.779+0400][1172.124s] GC(98) CMS: 182008K->183336K(393216K)
[2020-01-27T13:25:44.779+0400][1172.124s] GC(98) Metaspace: 61813K->61813K(1105920K)
[2020-01-27T13:25:44.779+0400][1172.124s] GC(98) Pause Young (Allocation Failure) 275M->195M(490M) 9.009ms
[2020-01-27T13:25:44.779+0400][1172.124s] GC(98) User=0.06s Sys=0.00s Real=0.01s
[2020-01-27T13:25:51.057+0400][1178.412s] GC(99) Pause Young (Allocation Failure)
[2020-01-27T13:25:51.057+0400][1178.412s] GC(99) Using 4 workers of 4 for evacuation
[2020-01-27T13:25:51.072+0400][1178.422s] GC(99) ParNew: 104742K->21824K(109248K)
[2020-01-27T13:25:51.072+0400][1178.422s] GC(99) CMS: 183336K->184282K(393216K)
[2020-01-27T13:25:51.072+0400][1178.422s] GC(99) Metaspace: 61824K->61824K(1105920K)
[2020-01-27T13:25:51.072+0400][1178.422s] GC(99) Pause Young (Allocation Failure) 281M->201M(490M) 9.358ms
[2020-01-27T13:25:51.072+0400][1178.422s] GC(99) User=0.06s Sys=0.00s Real=0.02s
[2020-01-27T13:25:55.487+0400][1182.847s] GC(100) Pause Young (Allocation Failure)
[2020-01-27T13:25:55.487+0400][1182.847s] GC(100) Using 4 workers of 4 for evacuation
[2020-01-27T13:25:55.503+0400][1182.856s] GC(100) ParNew: 109248K->21824K(109248K)
[2020-01-27T13:25:55.503+0400][1182.856s] GC(100) CMS: 184282K->191594K(393216K)
[2020-01-27T13:25:55.503+0400][1182.856s] GC(100) Metaspace: 61829K->61829K(1105920K)
[2020-01-27T13:25:55.503+0400][1182.857s] GC(100) Pause Young (Allocation Failure) 286M->208M(490M) 9.980ms
[2020-01-27T13:25:55.503+0400][1182.857s] GC(100) User=0.06s Sys=0.00s Real=0.02s
[2020-01-27T13:25:55.840+0400][1183.187s] GC(101) Pause Young (Allocation Failure)
[2020-01-27T13:25:55.840+0400][1183.187s] GC(101) Using 4 workers of 4 for evacuation
[2020-01-27T13:25:55.848+0400][1183.193s] GC(101) ParNew: 109248K->21824K(109248K)
[2020-01-27T13:25:55.848+0400][1183.193s] GC(101) CMS: 191594K->194166K(393216K)
[2020-01-27T13:25:55.848+0400][1183.193s] GC(101) Metaspace: 61837K->61837K(1105920K)
[2020-01-27T13:25:55.848+0400][1183.193s] GC(101) Pause Young (Allocation Failure) 293M->210M(490M) 6.541ms
[2020-01-27T13:25:55.848+0400][1183.193s] GC(101) User=0.06s Sys=0.00s Real=0.01s
[2020-01-27T13:25:55.905+0400][1183.253s] GC(102) Pause Young (Allocation Failure)
[2020-01-27T13:25:55.905+0400][1183.254s] GC(102) Using 4 workers of 4 for evacuation
[2020-01-27T13:25:55.905+0400][1183.259s] GC(102) ParNew: 109228K->21824K(109248K)
[2020-01-27T13:25:55.905+0400][1183.259s] GC(102) CMS: 194166K->194166K(393216K)
[2020-01-27T13:25:55.905+0400][1183.259s] GC(102) Metaspace: 61840K->61840K(1105920K)
[2020-01-27T13:25:55.905+0400][1183.259s] GC(102) Pause Young (Allocation Failure) 296M->210M(490M) 5.547ms
[2020-01-27T13:25:55.905+0400][1183.259s] GC(102) User=0.00s Sys=0.00s Real=0.00s
[2020-01-27T13:26:00.788+0400][1188.135s] GC(103) Pause Young (Allocation Failure)
[2020-01-27T13:26:00.788+0400][1188.135s] GC(103) Using 4 workers of 4 for evacuation
[2020-01-27T13:26:00.795+0400][1188.141s] GC(103) ParNew: 109248K->20929K(109248K)
[2020-01-27T13:26:00.795+0400][1188.141s] GC(103) CMS: 194166K->194166K(393216K)
[2020-01-27T13:26:00.795+0400][1188.141s] GC(103) Metaspace: 61894K->61894K(1105920K)
[2020-01-27T13:26:00.795+0400][1188.141s] GC(103) Pause Young (Allocation Failure) 296M->210M(490M) 6.103ms
[2020-01-27T13:26:00.795+0400][1188.141s] GC(103) User=0.06s Sys=0.00s Real=0.01s
[2020-01-27T13:26:00.826+0400][1188.177s] GC(104) Pause Young (Allocation Failure)
[2020-01-27T13:26:00.826+0400][1188.177s] GC(104) Using 4 workers of 4 for evacuation
[2020-01-27T13:26:00.826+0400][1188.184s] GC(104) ParNew: 108353K->18565K(109248K)
[2020-01-27T13:26:00.826+0400][1188.184s] GC(104) CMS: 194166K->197756K(393216K)
[2020-01-27T13:26:00.826+0400][1188.184s] GC(104) Metaspace: 61894K->61894K(1105920K)
[2020-01-27T13:26:00.826+0400][1188.184s] GC(104) Pause Young (Allocation Failure) 295M->211M(490M) 7.358ms
[2020-01-27T13:26:00.826+0400][1188.184s] GC(104) User=0.00s Sys=0.00s Real=0.00s
[2020-01-27T13:26:00.826+0400][1188.185s] GC(105) Pause Initial Mark
[2020-01-27T13:26:00.841+0400][1188.186s] GC(105) Pause Initial Mark 212M->212M(490M) 1.847ms
[2020-01-27T13:26:00.841+0400][1188.186s] GC(105) User=0.06s Sys=0.00s Real=0.02s
[2020-01-27T13:26:00.841+0400][1188.187s] GC(105) Concurrent Mark
[2020-01-27T13:26:00.841+0400][1188.187s] GC(105) Using 4 workers of 4 for marking
[2020-01-27T13:26:00.873+0400][1188.223s] GC(105) Concurrent Mark 36.792ms
[2020-01-27T13:26:00.873+0400][1188.223s] GC(105) User=0.20s Sys=0.02s Real=0.03s
[2020-01-27T13:26:00.873+0400][1188.223s] GC(105) Concurrent Preclean
[2020-01-27T13:26:00.873+0400][1188.225s] GC(105) Concurrent Preclean 1.296ms
[2020-01-27T13:26:00.873+0400][1188.225s] GC(105) User=0.00s Sys=0.00s Real=0.00s
[2020-01-27T13:26:00.873+0400][1188.225s] GC(105) Concurrent Abortable Preclean
[2020-01-27T13:26:04.255+0400][1191.602s] GC(106) Pause Young (Allocation Failure)
[2020-01-27T13:26:04.255+0400][1191.602s] GC(106) Using 4 workers of 4 for evacuation
[2020-01-27T13:26:04.255+0400][1191.611s] GC(106) ParNew: 105989K->21824K(109248K)
[2020-01-27T13:26:04.255+0400][1191.611s] GC(106) CMS: 197756K->198446K(393216K)
[2020-01-27T13:26:04.255+0400][1191.611s] GC(106) Metaspace: 61931K->61931K(1105920K)
[2020-01-27T13:26:04.255+0400][1191.611s] GC(106) Pause Young (Allocation Failure) 296M->215M(490M) 9.221ms
[2020-01-27T13:26:04.255+0400][1191.611s] GC(106) User=0.00s Sys=0.00s Real=0.00s
[2020-01-27T13:26:06.464+0400][1193.808s] GC(105) Concurrent Abortable Preclean 5583.239ms
[2020-01-27T13:26:06.464+0400][1193.808s] GC(105) User=3.14s Sys=0.13s Real=5.59s
[2020-01-27T13:26:06.464+0400][1193.808s] GC(105) Pause Remark
[2020-01-27T13:26:06.464+0400][1193.808s] GC(107) Pause Young (CMS Final Remark)
[2020-01-27T13:26:06.464+0400][1193.808s] GC(107) Using 4 workers of 4 for evacuation
[2020-01-27T13:26:06.476+0400][1193.821s] GC(107) ParNew: 70655K->21824K(109248K)
[2020-01-27T13:26:06.476+0400][1193.821s] GC(107) CMS: 198446K->203808K(393216K)
[2020-01-27T13:26:06.476+0400][1193.821s] GC(107) Metaspace: 61963K->61963K(1105920K)
[2020-01-27T13:26:06.476+0400][1193.821s] GC(107) Pause Young (CMS Final Remark) 262M->220M(490M) 12.859ms
[2020-01-27T13:26:06.476+0400][1193.821s] GC(107) User=0.06s Sys=0.00s Real=0.01s
[2020-01-27T13:26:06.534+0400][1193.878s] GC(105) Pause Remark 262M->220M(490M) 69.587ms
[2020-01-27T13:26:06.534+0400][1193.878s] GC(105) User=0.16s Sys=0.02s Real=0.07s
[2020-01-27T13:26:06.534+0400][1193.878s] GC(105) Concurrent Sweep
[2020-01-27T13:26:06.607+0400][1193.954s] GC(105) Concurrent Sweep 76.478ms
[2020-01-27T13:26:06.607+0400][1193.954s] GC(105) User=0.13s Sys=0.00s Real=0.07s
[2020-01-27T13:26:06.607+0400][1193.954s] GC(105) Concurrent Reset
[2020-01-27T13:26:06.607+0400][1193.955s] GC(105) Concurrent Reset 0.632ms
[2020-01-27T13:26:06.607+0400][1193.955s] GC(105) User=0.00s Sys=0.00s Real=0.00s
[2020-01-27T13:26:06.607+0400][1193.955s] GC(105) Old: 197756K->135874K(393216K)
[2020-01-27T13:26:09.559+0400][1196.906s] GC(108) Pause Young (Allocation Failure)
[2020-01-27T13:26:09.559+0400][1196.906s] GC(108) Using 4 workers of 4 for evacuation
[2020-01-27T13:26:09.559+0400][1196.916s] GC(108) ParNew: 109248K->21824K(109248K)
[2020-01-27T13:26:09.559+0400][1196.916s] GC(108) CMS: 135874K->144757K(393216K)
[2020-01-27T13:26:09.559+0400][1196.916s] GC(108) Metaspace: 61873K->61873K(1105920K)
[2020-01-27T13:26:09.559+0400][1196.916s] GC(108) Pause Young (Allocation Failure) 239M->162M(490M) 9.917ms
[2020-01-27T13:26:09.559+0400][1196.916s] GC(108) User=0.00s Sys=0.00s Real=0.00s
[2020-01-27T13:26:09.760+0400][1197.104s] GC(109) Pause Young (Allocation Failure)
[2020-01-27T13:26:09.760+0400][1197.104s] GC(109) Using 4 workers of 4 for evacuation
[2020-01-27T13:26:09.760+0400][1197.111s] GC(109) ParNew: 109248K->21824K(109248K)
[2020-01-27T13:26:09.760+0400][1197.111s] GC(109) CMS: 144757K->144757K(393216K)
[2020-01-27T13:26:09.760+0400][1197.111s] GC(109) Metaspace: 61875K->61875K(1105920K)
[2020-01-27T13:26:09.760+0400][1197.111s] GC(109) Pause Young (Allocation Failure) 248M->162M(490M) 6.628ms
[2020-01-27T13:26:09.760+0400][1197.111s] GC(109) User=0.00s Sys=0.00s Real=0.00s
[2020-01-27T13:26:09.875+0400][1197.231s] GC(110) Pause Young (Allocation Failure)
[2020-01-27T13:26:09.875+0400][1197.231s] GC(110) Using 4 workers of 4 for evacuation
[2020-01-27T13:26:09.891+0400][1197.237s] GC(110) ParNew: 109248K->21824K(109248K)
[2020-01-27T13:26:09.891+0400][1197.238s] GC(110) CMS: 144757K->145117K(393216K)
[2020-01-27T13:26:09.891+0400][1197.238s] GC(110) Metaspace: 61875K->61875K(1105920K)
[2020-01-27T13:26:09.891+0400][1197.238s] GC(110) Pause Young (Allocation Failure) 248M->163M(490M) 6.379ms
[2020-01-27T13:26:09.891+0400][1197.238s] GC(110) User=0.08s Sys=0.00s Real=0.02s
[2020-01-27T13:26:10.060+0400][1197.405s] GC(111) Pause Young (Allocation Failure)
[2020-01-27T13:26:10.060+0400][1197.405s] GC(111) Using 4 workers of 4 for evacuation
[2020-01-27T13:26:10.060+0400][1197.413s] GC(111) ParNew: 109248K->21824K(109248K)
[2020-01-27T13:26:10.060+0400][1197.413s] GC(111) CMS: 145117K->145706K(393216K)
[2020-01-27T13:26:10.060+0400][1197.413s] GC(111) Metaspace: 61882K->61882K(1105920K)
[2020-01-27T13:26:10.060+0400][1197.413s] GC(111) Pause Young (Allocation Failure) 248M->163M(490M) 7.726ms
[2020-01-27T13:26:10.060+0400][1197.413s] GC(111) User=0.00s Sys=0.00s Real=0.00s
[2020-01-27T13:30:01.520+0400][1428.870s] GC(112) Pause Young (Allocation Failure)
[2020-01-27T13:30:01.520+0400][1428.870s] GC(112) Using 4 workers of 4 for evacuation
[2020-01-27T13:30:01.520+0400][1428.879s] GC(112) ParNew: 109248K->20676K(109248K)
[2020-01-27T13:30:01.520+0400][1428.879s] GC(112) CMS: 145706K->149535K(393216K)
[2020-01-27T13:30:01.520+0400][1428.879s] GC(112) Metaspace: 62038K->62038K(1105920K)
[2020-01-27T13:30:01.520+0400][1428.879s] GC(112) Pause Young (Allocation Failure) 248M->166M(490M) 8.789ms
[2020-01-27T13:30:01.520+0400][1428.879s] GC(112) User=0.00s Sys=0.00s Real=0.00s
[2020-01-27T13:30:01.556+0400][1428.910s] GC(113) Pause Young (Allocation Failure)
[2020-01-27T13:30:01.556+0400][1428.910s] GC(113) Using 4 workers of 4 for evacuation
[2020-01-27T13:30:01.572+0400][1428.916s] GC(113) ParNew: 108100K->16429K(109248K)
[2020-01-27T13:30:01.572+0400][1428.916s] GC(113) CMS: 149535K->149656K(393216K)
[2020-01-27T13:30:01.572+0400][1428.916s] GC(113) Metaspace: 62043K->62043K(1105920K)
[2020-01-27T13:30:01.572+0400][1428.916s] GC(113) Pause Young (Allocation Failure) 251M->162M(490M) 6.394ms
[2020-01-27T13:30:01.572+0400][1428.916s] GC(113) User=0.03s Sys=0.00s Real=0.02s
[2020-01-27T13:30:01.620+0400][1428.975s] GC(114) Pause Young (Allocation Failure)
[2020-01-27T13:30:01.620+0400][1428.975s] GC(114) Using 4 workers of 4 for evacuation
[2020-01-27T13:30:01.636+0400][1428.980s] GC(114) ParNew: 103853K->18482K(109248K)
[2020-01-27T13:30:01.636+0400][1428.980s] GC(114) CMS: 149656K->151787K(393216K)
[2020-01-27T13:30:01.636+0400][1428.980s] GC(114) Metaspace: 62052K->62052K(1105920K)
[2020-01-27T13:30:01.636+0400][1428.980s] GC(114) Pause Young (Allocation Failure) 247M->166M(490M) 5.252ms
[2020-01-27T13:30:01.636+0400][1428.980s] GC(114) User=0.02s Sys=0.00s Real=0.02s
[2020-01-27T13:30:04.068+0400][1431.421s] GC(115) Pause Young (Allocation Failure)
[2020-01-27T13:30:04.068+0400][1431.421s] GC(115) Using 4 workers of 4 for evacuation
[2020-01-27T13:30:04.068+0400][1431.426s] GC(115) ParNew: 105906K->18265K(109248K)
[2020-01-27T13:30:04.068+0400][1431.427s] GC(115) CMS: 151787K->153582K(393216K)
[2020-01-27T13:30:04.068+0400][1431.427s] GC(115) Metaspace: 62120K->62120K(1105920K)
[2020-01-27T13:30:04.068+0400][1431.427s] GC(115) Pause Young (Allocation Failure) 251M->167M(490M) 5.295ms
[2020-01-27T13:30:04.068+0400][1431.427s] GC(115) User=0.00s Sys=0.00s Real=0.00s
[2020-01-27T13:30:04.106+0400][1431.462s] GC(116) Pause Young (Allocation Failure)
[2020-01-27T13:30:04.106+0400][1431.462s] GC(116) Using 4 workers of 4 for evacuation
[2020-01-27T13:30:04.122+0400][1431.468s] GC(116) ParNew: 105689K->15106K(109248K)
[2020-01-27T13:30:04.122+0400][1431.468s] GC(116) CMS: 153582K->156284K(393216K)
[2020-01-27T13:30:04.122+0400][1431.468s] GC(116) Metaspace: 62125K->62125K(1105920K)
[2020-01-27T13:30:04.122+0400][1431.468s] GC(116) Pause Young (Allocation Failure) 253M->167M(490M) 5.585ms
[2020-01-27T13:30:04.122+0400][1431.468s] GC(116) User=0.06s Sys=0.00s Real=0.02s
[2020-01-27T13:30:06.334+0400][1433.685s] GC(117) Pause Young (Allocation Failure)
[2020-01-27T13:30:06.334+0400][1433.685s] GC(117) Using 4 workers of 4 for evacuation
[2020-01-27T13:30:06.344+0400][1433.692s] GC(117) ParNew: 102530K->13040K(109248K)
[2020-01-27T13:30:06.344+0400][1433.692s] GC(117) CMS: 156284K->158757K(393216K)
[2020-01-27T13:30:06.344+0400][1433.692s] GC(117) Metaspace: 62302K->62302K(1107968K)
[2020-01-27T13:30:06.344+0400][1433.692s] GC(117) Pause Young (Allocation Failure) 252M->167M(490M) 6.839ms
[2020-01-27T13:30:06.344+0400][1433.692s] GC(117) User=0.06s Sys=0.00s Real=0.01s
[2020-01-27T13:30:06.393+0400][1433.738s] GC(118) Pause Young (Allocation Failure)
[2020-01-27T13:30:06.393+0400][1433.738s] GC(118) Using 4 workers of 4 for evacuation
[2020-01-27T13:30:06.403+0400][1433.747s] GC(118) ParNew: 100464K->12285K(109248K)
[2020-01-27T13:30:06.403+0400][1433.747s] GC(118) CMS: 158757K->158802K(393216K)
[2020-01-27T13:30:06.403+0400][1433.747s] GC(118) Metaspace: 62303K->62303K(1107968K)
[2020-01-27T13:30:06.403+0400][1433.747s] GC(118) Pause Young (Allocation Failure) 253M->167M(490M) 8.325ms
[2020-01-27T13:30:06.403+0400][1433.747s] GC(118) User=0.00s Sys=0.00s Real=0.01s
[2020-01-27T13:30:08.702+0400][1436.052s] GC(119) Pause Young (Allocation Failure)
[2020-01-27T13:30:08.702+0400][1436.052s] GC(119) Using 4 workers of 4 for evacuation
[2020-01-27T13:30:08.702+0400][1436.059s] GC(119) ParNew: 99709K->11922K(109248K)
[2020-01-27T13:30:08.702+0400][1436.059s] GC(119) CMS: 158802K->159056K(393216K)
[2020-01-27T13:30:08.702+0400][1436.059s] GC(119) Metaspace: 62391K->62391K(1107968K)
[2020-01-27T13:30:08.702+0400][1436.059s] GC(119) Pause Young (Allocation Failure) 252M->166M(490M) 6.973ms
[2020-01-27T13:30:08.702+0400][1436.059s] GC(119) User=0.00s Sys=0.00s Real=0.00s
[2020-01-27T13:30:08.739+0400][1436.084s] GC(120) Pause Young (Allocation Failure)
[2020-01-27T13:30:08.739+0400][1436.084s] GC(120) Using 4 workers of 4 for evacuation
[2020-01-27T13:30:08.739+0400][1436.090s] GC(120) ParNew: 99346K->9189K(109248K)
[2020-01-27T13:30:08.739+0400][1436.090s] GC(120) CMS: 159056K->163024K(393216K)
[2020-01-27T13:30:08.739+0400][1436.090s] GC(120) Metaspace: 62391K->62391K(1107968K)
[2020-01-27T13:30:08.739+0400][1436.090s] GC(120) Pause Young (Allocation Failure) 252M->168M(490M) 6.266ms
[2020-01-27T13:30:08.739+0400][1436.090s] GC(120) User=0.00s Sys=0.00s Real=0.00s
[2020-01-27T13:34:24.719+0400][1692.063s] GC(121) Pause Young (Allocation Failure)
[2020-01-27T13:34:24.719+0400][1692.063s] GC(121) Using 4 workers of 4 for evacuation
[2020-01-27T13:34:24.719+0400][1692.069s] GC(121) ParNew: 96613K->6614K(109248K)
[2020-01-27T13:34:24.719+0400][1692.069s] GC(121) CMS: 163024K->163189K(393216K)
[2020-01-27T13:34:24.719+0400][1692.069s] GC(121) Metaspace: 62432K->62432K(1107968K)
[2020-01-27T13:34:24.719+0400][1692.069s] GC(121) Pause Young (Allocation Failure) 253M->165M(490M) 5.931ms
[2020-01-27T13:34:24.719+0400][1692.069s] GC(121) User=0.00s Sys=0.00s Real=0.00s
[2020-01-27T13:35:04.860+0400][1732.211s] GC(122) Pause Young (Allocation Failure)
[2020-01-27T13:35:04.860+0400][1732.211s] GC(122) Using 4 workers of 4 for evacuation
[2020-01-27T13:35:04.870+0400][1732.218s] GC(122) ParNew: 94038K->9349K(109248K)
[2020-01-27T13:35:04.870+0400][1732.218s] GC(122) CMS: 163189K->163455K(393216K)
[2020-01-27T13:35:04.870+0400][1732.218s] GC(122) Metaspace: 62494K->62494K(1107968K)
[2020-01-27T13:35:04.870+0400][1732.218s] GC(122) Pause Young (Allocation Failure) 251M->168M(490M) 7.704ms
[2020-01-27T13:35:04.870+0400][1732.218s] GC(122) User=0.00s Sys=0.00s Real=0.01s
[2020-01-27T13:35:04.948+0400][1732.293s] GC(123) Pause Young (Allocation Failure)
[2020-01-27T13:35:04.948+0400][1732.294s] GC(123) Using 4 workers of 4 for evacuation
[2020-01-27T13:35:04.950+0400][1732.301s] GC(123) ParNew: 96773K->5380K(109248K)
[2020-01-27T13:35:04.950+0400][1732.301s] GC(123) CMS: 163455K->165999K(393216K)
[2020-01-27T13:35:04.950+0400][1732.302s] GC(123) Metaspace: 62498K->62498K(1107968K)
[2020-01-27T13:35:04.950+0400][1732.302s] GC(123) Pause Young (Allocation Failure) 254M->167M(490M) 8.119ms
[2020-01-27T13:35:04.950+0400][1732.302s] GC(123) User=0.00s Sys=0.00s Real=0.00s
[2020-01-27T13:35:10.314+0400][1737.658s] GC(124) Pause Young (Allocation Failure)
[2020-01-27T13:35:10.314+0400][1737.658s] GC(124) Using 4 workers of 4 for evacuation
[2020-01-27T13:35:10.324+0400][1737.668s] GC(124) ParNew: 92804K->21824K(109248K)
[2020-01-27T13:35:10.324+0400][1737.668s] GC(124) CMS: 165999K->166120K(393216K)
[2020-01-27T13:35:10.324+0400][1737.668s] GC(124) Metaspace: 62613K->62613K(1107968K)
[2020-01-27T13:35:10.324+0400][1737.668s] GC(124) Pause Young (Allocation Failure) 252M->183M(490M) 9.935ms
[2020-01-27T13:35:10.324+0400][1737.668s] GC(124) User=0.00s Sys=0.00s Real=0.01s
[2020-01-27T13:35:10.643+0400][1737.987s] GC(125) Pause Young (Allocation Failure)
[2020-01-27T13:35:10.643+0400][1737.987s] GC(125) Using 4 workers of 4 for evacuation
[2020-01-27T13:35:10.657+0400][1738.001s] GC(125) ParNew: 109248K->21824K(109248K)
[2020-01-27T13:35:10.657+0400][1738.001s] GC(125) CMS: 166120K->175723K(393216K)
[2020-01-27T13:35:10.657+0400][1738.001s] GC(125) Metaspace: 62618K->62618K(1107968K)
[2020-01-27T13:35:10.657+0400][1738.001s] GC(125) Pause Young (Allocation Failure) 268M->192M(490M) 13.991ms
[2020-01-27T13:35:10.657+0400][1738.001s] GC(125) User=0.08s Sys=0.02s Real=0.01s
[2020-01-27T13:35:10.841+0400][1738.185s] GC(126) Pause Young (Allocation Failure)
[2020-01-27T13:35:10.841+0400][1738.185s] GC(126) Using 4 workers of 4 for evacuation
[2020-01-27T13:35:10.853+0400][1738.198s] GC(126) ParNew: 109248K->21824K(109248K)
[2020-01-27T13:35:10.853+0400][1738.198s] GC(126) CMS: 175723K->186691K(393216K)
[2020-01-27T13:35:10.853+0400][1738.198s] GC(126) Metaspace: 62618K->62618K(1107968K)
[2020-01-27T13:35:10.853+0400][1738.198s] GC(126) Pause Young (Allocation Failure) 278M->203M(490M) 13.276ms
[2020-01-27T13:35:10.853+0400][1738.198s] GC(126) User=0.09s Sys=0.00s Real=0.01s
[2020-01-27T13:35:11.059+0400][1738.404s] GC(127) Pause Young (Allocation Failure)
[2020-01-27T13:35:11.060+0400][1738.404s] GC(127) Using 4 workers of 4 for evacuation
[2020-01-27T13:35:11.064+0400][1738.408s] GC(127) ParNew: 109242K->21824K(109248K)
[2020-01-27T13:35:11.064+0400][1738.408s] GC(127) CMS: 186691K->186858K(393216K)
[2020-01-27T13:35:11.064+0400][1738.408s] GC(127) Metaspace: 62618K->62618K(1107968K)
[2020-01-27T13:35:11.064+0400][1738.408s] GC(127) Pause Young (Allocation Failure) 288M->203M(490M) 4.273ms
[2020-01-27T13:35:11.064+0400][1738.408s] GC(127) User=0.00s Sys=0.02s Real=0.00s
[2020-01-27T13:35:11.147+0400][1738.491s] GC(128) Pause Young (Allocation Failure)
[2020-01-27T13:35:11.147+0400][1738.491s] GC(128) Using 4 workers of 4 for evacuation
[2020-01-27T13:35:11.151+0400][1738.495s] GC(128) ParNew: 108755K->21824K(109248K)
[2020-01-27T13:35:11.151+0400][1738.495s] GC(128) CMS: 186858K->187020K(393216K)
[2020-01-27T13:35:11.151+0400][1738.495s] GC(128) Metaspace: 62619K->62619K(1107968K)
[2020-01-27T13:35:11.151+0400][1738.495s] GC(128) Pause Young (Allocation Failure) 288M->203M(490M) 4.192ms
[2020-01-27T13:35:11.151+0400][1738.495s] GC(128) User=0.00s Sys=0.00s Real=0.00s
[2020-01-27T13:35:11.236+0400][1738.580s] GC(129) Pause Young (Allocation Failure)
[2020-01-27T13:35:11.236+0400][1738.581s] GC(129) Using 4 workers of 4 for evacuation
[2020-01-27T13:35:11.240+0400][1738.585s] GC(129) ParNew: 109123K->21824K(109248K)
[2020-01-27T13:35:11.240+0400][1738.585s] GC(129) CMS: 187020K->188080K(393216K)
[2020-01-27T13:35:11.240+0400][1738.585s] GC(129) Metaspace: 62619K->62619K(1107968K)
[2020-01-27T13:35:11.240+0400][1738.585s] GC(129) Pause Young (Allocation Failure) 289M->204M(490M) 4.162ms
[2020-01-27T13:35:11.240+0400][1738.585s] GC(129) User=0.00s Sys=0.00s Real=0.00s
[2020-01-27T13:35:11.292+0400][1738.637s] GC(130) Pause Young (Allocation Failure)
[2020-01-27T13:35:11.292+0400][1738.637s] GC(130) Using 4 workers of 4 for evacuation
[2020-01-27T13:35:11.296+0400][1738.641s] GC(130) ParNew: 109248K->21824K(109248K)
[2020-01-27T13:35:11.296+0400][1738.641s] GC(130) CMS: 188080K->188787K(393216K)
[2020-01-27T13:35:11.296+0400][1738.641s] GC(130) Metaspace: 62622K->62622K(1107968K)
[2020-01-27T13:35:11.296+0400][1738.641s] GC(130) Pause Young (Allocation Failure) 290M->205M(490M) 3.788ms
[2020-01-27T13:35:11.296+0400][1738.641s] GC(130) User=0.06s Sys=0.00s Real=0.00s
[2020-01-27T13:35:11.490+0400][1738.834s] GC(131) Pause Young (Allocation Failure)
[2020-01-27T13:35:11.490+0400][1738.834s] GC(131) Using 4 workers of 4 for evacuation
[2020-01-27T13:35:11.495+0400][1738.839s] GC(131) ParNew: 109248K->21824K(109248K)
[2020-01-27T13:35:11.495+0400][1738.839s] GC(131) CMS: 188787K->188787K(393216K)
[2020-01-27T13:35:11.495+0400][1738.839s] GC(131) Metaspace: 62633K->62633K(1107968K)
[2020-01-27T13:35:11.495+0400][1738.839s] GC(131) Pause Young (Allocation Failure) 291M->205M(490M) 5.068ms
[2020-01-27T13:35:11.495+0400][1738.839s] GC(131) User=0.00s Sys=0.00s Real=0.00s
[2020-01-27T13:36:08.851+0400][1796.195s] GC(132) Pause Young (Allocation Failure)
[2020-01-27T13:36:08.851+0400][1796.195s] GC(132) Using 4 workers of 4 for evacuation
[2020-01-27T13:36:08.854+0400][1796.199s] GC(132) ParNew: 109248K->21824K(109248K)
[2020-01-27T13:36:08.854+0400][1796.199s] GC(132) CMS: 188787K->188787K(393216K)
[2020-01-27T13:36:08.854+0400][1796.199s] GC(132) Metaspace: 62643K->62643K(1107968K)
[2020-01-27T13:36:08.854+0400][1796.199s] GC(132) Pause Young (Allocation Failure) 291M->205M(490M) 3.655ms
[2020-01-27T13:36:08.854+0400][1796.199s] GC(132) User=0.00s Sys=0.00s Real=0.00s
[2020-01-27T13:37:08.974+0400][1856.319s] GC(133) Pause Young (Allocation Failure)
[2020-01-27T13:37:08.974+0400][1856.319s] GC(133) Using 4 workers of 4 for evacuation
[2020-01-27T13:37:08.980+0400][1856.325s] GC(133) ParNew: 109248K->21806K(109248K)
[2020-01-27T13:37:08.981+0400][1856.325s] GC(133) CMS: 188787K->191972K(393216K)
[2020-01-27T13:37:08.981+0400][1856.325s] GC(133) Metaspace: 62645K->62645K(1107968K)
[2020-01-27T13:37:08.981+0400][1856.325s] GC(133) Pause Young (Allocation Failure) 291M->208M(490M) 6.397ms
[2020-01-27T13:37:08.981+0400][1856.325s] GC(133) User=0.00s Sys=0.00s Real=0.01s
[2020-01-27T13:38:09.191+0400][1916.535s] GC(134) Pause Young (Allocation Failure)
[2020-01-27T13:38:09.191+0400][1916.535s] GC(134) Using 4 workers of 4 for evacuation
[2020-01-27T13:38:09.196+0400][1916.540s] GC(134) ParNew: 109230K->19816K(109248K)
[2020-01-27T13:38:09.196+0400][1916.540s] GC(134) CMS: 191972K->194642K(393216K)
[2020-01-27T13:38:09.196+0400][1916.540s] GC(134) Metaspace: 62646K->62646K(1107968K)
[2020-01-27T13:38:09.196+0400][1916.540s] GC(134) Pause Young (Allocation Failure) 294M->209M(490M) 4.872ms
[2020-01-27T13:38:09.196+0400][1916.540s] GC(134) User=0.00s Sys=0.00s Real=0.01s
[2020-01-27T13:38:47.226+0400][1954.581s] GC(135) Pause Young (Allocation Failure)
[2020-01-27T13:38:47.226+0400][1954.581s] GC(135) Using 4 workers of 4 for evacuation
[2020-01-27T13:38:47.226+0400][1954.585s] GC(135) ParNew: 107240K->8567K(109248K)
[2020-01-27T13:38:47.226+0400][1954.585s] GC(135) CMS: 194642K->198023K(393216K)
[2020-01-27T13:38:47.226+0400][1954.585s] GC(135) Metaspace: 62771K->62771K(1107968K)
[2020-01-27T13:38:47.226+0400][1954.585s] GC(135) Pause Young (Allocation Failure) 294M->201M(490M) 3.702ms
[2020-01-27T13:38:47.226+0400][1954.585s] GC(135) User=0.00s Sys=0.00s Real=0.00s
[2020-01-27T13:38:47.226+0400][1954.585s] GC(136) Pause Initial Mark
[2020-01-27T13:38:47.242+0400][1954.586s] GC(136) Pause Initial Mark 202M->202M(490M) 0.931ms
[2020-01-27T13:38:47.242+0400][1954.586s] GC(136) User=0.02s Sys=0.00s Real=0.02s
[2020-01-27T13:38:47.242+0400][1954.586s] GC(136) Concurrent Mark
[2020-01-27T13:38:47.242+0400][1954.586s] GC(136) Using 4 workers of 4 for marking
[2020-01-27T13:38:47.273+0400][1954.622s] GC(136) Concurrent Mark 35.805ms
[2020-01-27T13:38:47.273+0400][1954.622s] GC(136) User=0.19s Sys=0.00s Real=0.03s
[2020-01-27T13:38:47.273+0400][1954.622s] GC(136) Concurrent Preclean
[2020-01-27T13:38:47.273+0400][1954.624s] GC(136) Concurrent Preclean 1.521ms
[2020-01-27T13:38:47.273+0400][1954.624s] GC(136) User=0.00s Sys=0.00s Real=0.00s
[2020-01-27T13:38:47.273+0400][1954.624s] GC(136) Concurrent Abortable Preclean
[2020-01-27T13:38:47.273+0400][1954.624s] GC(137) Pause Young (Allocation Failure)
[2020-01-27T13:38:47.273+0400][1954.624s] GC(137) Using 4 workers of 4 for evacuation
[2020-01-27T13:38:47.273+0400][1954.628s] GC(137) ParNew: 95991K->6856K(109248K)
[2020-01-27T13:38:47.273+0400][1954.629s] GC(137) CMS: 198023K->199105K(393216K)
[2020-01-27T13:38:47.273+0400][1954.629s] GC(137) Metaspace: 62774K->62774K(1107968K)
[2020-01-27T13:38:47.273+0400][1954.629s] GC(137) Pause Young (Allocation Failure) 287M->201M(490M) 4.167ms
[2020-01-27T13:38:47.273+0400][1954.629s] GC(137) User=0.00s Sys=0.00s Real=0.00s
[2020-01-27T13:38:47.324+0400][1954.681s] GC(136) Concurrent Abortable Preclean 57.604ms
[2020-01-27T13:38:47.324+0400][1954.682s] GC(136) User=0.13s Sys=0.00s Real=0.05s
[2020-01-27T13:38:47.324+0400][1954.682s] GC(136) Pause Remark
[2020-01-27T13:38:47.324+0400][1954.682s] GC(138) Pause Young (CMS Final Remark)
[2020-01-27T13:38:47.324+0400][1954.682s] GC(138) Using 4 workers of 4 for evacuation
[2020-01-27T13:38:47.339+0400][1954.685s] GC(138) ParNew: 74501K->8815K(109248K)
[2020-01-27T13:38:47.339+0400][1954.685s] GC(138) CMS: 199105K->199187K(393216K)
[2020-01-27T13:38:47.339+0400][1954.685s] GC(138) Metaspace: 62778K->62778K(1107968K)
[2020-01-27T13:38:47.339+0400][1954.685s] GC(138) Pause Young (CMS Final Remark) 267M->203M(490M) 3.309ms
[2020-01-27T13:38:47.339+0400][1954.685s] GC(138) User=0.08s Sys=0.00s Real=0.02s
[2020-01-27T13:38:47.371+0400][1954.725s] GC(136) Pause Remark 267M->203M(490M) 43.312ms
[2020-01-27T13:38:47.371+0400][1954.725s] GC(136) User=0.14s Sys=0.00s Real=0.05s
[2020-01-27T13:38:47.371+0400][1954.725s] GC(136) Concurrent Sweep
[2020-01-27T13:38:47.429+0400][1954.773s] GC(136) Concurrent Sweep 47.536ms
[2020-01-27T13:38:47.429+0400][1954.773s] GC(136) User=0.19s Sys=0.02s Real=0.06s
[2020-01-27T13:38:47.429+0400][1954.773s] GC(136) Concurrent Reset
[2020-01-27T13:38:47.429+0400][1954.773s] GC(136) Concurrent Reset 0.446ms
[2020-01-27T13:38:47.429+0400][1954.773s] GC(136) User=0.00s Sys=0.00s Real=0.00s
[2020-01-27T13:38:47.429+0400][1954.773s] GC(136) Old: 198023K->144431K(393216K)
[2020-01-27T13:38:49.793+0400][1957.137s] GC(139) Pause Young (Allocation Failure)
[2020-01-27T13:38:49.793+0400][1957.137s] GC(139) Using 4 workers of 4 for evacuation
[2020-01-27T13:38:49.805+0400][1957.149s] GC(139) ParNew: 96239K->21824K(109248K)
[2020-01-27T13:38:49.805+0400][1957.149s] GC(139) CMS: 144431K->145391K(393216K)
[2020-01-27T13:38:49.805+0400][1957.149s] GC(139) Metaspace: 62474K->62474K(1107968K)
[2020-01-27T13:38:49.805+0400][1957.149s] GC(139) Pause Young (Allocation Failure) 235M->163M(490M) 12.066ms
[2020-01-27T13:38:49.805+0400][1957.149s] GC(139) User=0.09s Sys=0.00s Real=0.01s
[2020-01-27T13:38:50.125+0400][1957.471s] GC(140) Pause Young (Allocation Failure)
[2020-01-27T13:38:50.125+0400][1957.471s] GC(140) Using 4 workers of 4 for evacuation
[2020-01-27T13:38:50.133+0400][1957.484s] GC(140) ParNew: 109248K->21824K(109248K)
[2020-01-27T13:38:50.133+0400][1957.484s] GC(140) CMS: 145391K->153146K(393216K)
[2020-01-27T13:38:50.133+0400][1957.484s] GC(140) Metaspace: 62475K->62475K(1107968K)
[2020-01-27T13:38:50.133+0400][1957.484s] GC(140) Pause Young (Allocation Failure) 248M->170M(490M) 12.750ms
[2020-01-27T13:38:50.133+0400][1957.484s] GC(140) User=0.00s Sys=0.00s Real=0.01s
[2020-01-27T13:38:50.344+0400][1957.690s] GC(141) Pause Young (Allocation Failure)
[2020-01-27T13:38:50.344+0400][1957.690s] GC(141) Using 4 workers of 4 for evacuation
[2020-01-27T13:38:50.346+0400][1957.697s] GC(141) ParNew: 109248K->21824K(109248K)
[2020-01-27T13:38:50.346+0400][1957.697s] GC(141) CMS: 153146K->161949K(393216K)
[2020-01-27T13:38:50.346+0400][1957.697s] GC(141) Metaspace: 62477K->62477K(1107968K)
[2020-01-27T13:38:50.346+0400][1957.698s] GC(141) Pause Young (Allocation Failure) 256M->179M(490M) 7.950ms
[2020-01-27T13:38:50.346+0400][1957.698s] GC(141) User=0.00s Sys=0.00s Real=0.00s
[2020-01-27T13:38:50.447+0400][1957.803s] GC(142) Pause Young (Allocation Failure)
[2020-01-27T13:38:50.447+0400][1957.803s] GC(142) Using 4 workers of 4 for evacuation
[2020-01-27T13:38:50.462+0400][1957.808s] GC(142) ParNew: 108822K->21824K(109248K)
[2020-01-27T13:38:50.462+0400][1957.808s] GC(142) CMS: 161949K->161949K(393216K)
[2020-01-27T13:38:50.462+0400][1957.808s] GC(142) Metaspace: 62477K->62477K(1107968K)
[2020-01-27T13:38:50.462+0400][1957.808s] GC(142) Pause Young (Allocation Failure) 264M->179M(490M) 4.310ms
[2020-01-27T13:38:50.462+0400][1957.808s] GC(142) User=0.06s Sys=0.00s Real=0.01s
[2020-01-27T13:38:50.530+0400][1957.874s] GC(143) Pause Young (Allocation Failure)
[2020-01-27T13:38:50.530+0400][1957.874s] GC(143) Using 4 workers of 4 for evacuation
[2020-01-27T13:38:50.534+0400][1957.878s] GC(143) ParNew: 108913K->18165K(109248K)
[2020-01-27T13:38:50.534+0400][1957.878s] GC(143) CMS: 161949K->161949K(393216K)
[2020-01-27T13:38:50.534+0400][1957.878s] GC(143) Metaspace: 62477K->62477K(1107968K)
[2020-01-27T13:38:50.534+0400][1957.878s] GC(143) Pause Young (Allocation Failure) 264M->175M(490M) 3.888ms
[2020-01-27T13:38:50.534+0400][1957.878s] GC(143) User=0.00s Sys=0.00s Real=0.00s
[2020-01-27T13:41:24.747+0400][2112.092s] GC(144) Pause Young (Allocation Failure)
[2020-01-27T13:41:24.747+0400][2112.092s] GC(144) Using 4 workers of 4 for evacuation
[2020-01-27T13:41:24.753+0400][2112.098s] GC(144) ParNew: 105589K->19100K(109248K)
[2020-01-27T13:41:24.754+0400][2112.098s] GC(144) CMS: 161949K->161949K(393216K)
[2020-01-27T13:41:24.754+0400][2112.098s] GC(144) Metaspace: 62482K->62482K(1107968K)
[2020-01-27T13:41:24.754+0400][2112.098s] GC(144) Pause Young (Allocation Failure) 261M->176M(490M) 6.176ms
[2020-01-27T13:41:24.754+0400][2112.098s] GC(144) User=0.00s Sys=0.00s Real=0.01s
[2020-01-27T13:43:11.697+0400][2219.046s] GC(145) Pause Young (Allocation Failure)
[2020-01-27T13:43:11.697+0400][2219.046s] GC(145) Using 4 workers of 4 for evacuation
[2020-01-27T13:43:11.697+0400][2219.051s] GC(145) ParNew: 106524K->19811K(109248K)
[2020-01-27T13:43:11.697+0400][2219.051s] GC(145) CMS: 161949K->162122K(393216K)
[2020-01-27T13:43:11.697+0400][2219.051s] GC(145) Metaspace: 62493K->62493K(1107968K)
[2020-01-27T13:43:11.697+0400][2219.051s] GC(145) Pause Young (Allocation Failure) 262M->177M(490M) 4.945ms
[2020-01-27T13:43:11.697+0400][2219.051s] GC(145) User=0.00s Sys=0.00s Real=0.00s
[2020-01-27T13:55:21.328+0400][2948.672s] GC(146) Pause Young (Allocation Failure)
[2020-01-27T13:55:21.328+0400][2948.672s] GC(146) Using 4 workers of 4 for evacuation
[2020-01-27T13:55:21.328+0400][2948.678s] GC(146) ParNew: 107235K->13073K(109248K)
[2020-01-27T13:55:21.328+0400][2948.678s] GC(146) CMS: 162122K->162306K(393216K)
[2020-01-27T13:55:21.328+0400][2948.678s] GC(146) Metaspace: 62569K->62569K(1107968K)
[2020-01-27T13:55:21.328+0400][2948.678s] GC(146) Pause Young (Allocation Failure) 263M->171M(490M) 5.612ms
[2020-01-27T13:55:21.328+0400][2948.678s] GC(146) User=0.00s Sys=0.00s Real=0.00s
[2020-01-27T13:55:21.359+0400][2948.709s] GC(147) Pause Young (Allocation Failure)
[2020-01-27T13:55:21.359+0400][2948.709s] GC(147) Using 4 workers of 4 for evacuation
[2020-01-27T13:55:21.359+0400][2948.715s] GC(147) ParNew: 100497K->11699K(109248K)
[2020-01-27T13:55:21.359+0400][2948.715s] GC(147) CMS: 162306K->166270K(393216K)
[2020-01-27T13:55:21.359+0400][2948.715s] GC(147) Metaspace: 62570K->62570K(1107968K)
[2020-01-27T13:55:21.359+0400][2948.715s] GC(147) Pause Young (Allocation Failure) 256M->173M(490M) 6.123ms
[2020-01-27T13:55:21.359+0400][2948.716s] GC(147) User=0.00s Sys=0.00s Real=0.00s
[2020-01-27T13:55:21.546+0400][2948.890s] GC(148) Pause Young (Allocation Failure)
[2020-01-27T13:55:21.546+0400][2948.891s] GC(148) Using 4 workers of 4 for evacuation
[2020-01-27T13:55:21.552+0400][2948.896s] GC(148) ParNew: 99123K->12796K(109248K)
[2020-01-27T13:55:21.552+0400][2948.896s] GC(148) CMS: 166270K->167974K(393216K)
[2020-01-27T13:55:21.552+0400][2948.896s] GC(148) Metaspace: 62588K->62588K(1107968K)
[2020-01-27T13:55:21.552+0400][2948.896s] GC(148) Pause Young (Allocation Failure) 259M->176M(490M) 5.396ms
[2020-01-27T13:55:21.552+0400][2948.896s] GC(148) User=0.00s Sys=0.00s Real=0.01s
[2020-01-27T13:56:07.978+0400][2995.328s] GC(149) Pause Young (Allocation Failure)
[2020-01-27T13:56:07.978+0400][2995.328s] GC(149) Using 4 workers of 4 for evacuation
[2020-01-27T13:56:07.993+0400][2995.342s] GC(149) ParNew: 100220K->21434K(109248K)
[2020-01-27T13:56:07.993+0400][2995.342s] GC(149) CMS: 167974K->170298K(393216K)
[2020-01-27T13:56:07.993+0400][2995.342s] GC(149) Metaspace: 62592K->62592K(1107968K)
[2020-01-27T13:56:07.993+0400][2995.342s] GC(149) Pause Young (Allocation Failure) 261M->187M(490M) 14.334ms
[2020-01-27T13:56:07.993+0400][2995.342s] GC(149) User=0.06s Sys=0.00s Real=0.02s
[2020-01-27T13:57:16.969+0400][3064.313s] GC(150) Pause Young (Allocation Failure)
[2020-01-27T13:57:16.969+0400][3064.313s] GC(150) Using 4 workers of 4 for evacuation
[2020-01-27T13:57:16.979+0400][3064.323s] GC(150) ParNew: 108858K->21824K(109248K)
[2020-01-27T13:57:16.979+0400][3064.323s] GC(150) CMS: 170298K->171914K(393216K)
[2020-01-27T13:57:16.979+0400][3064.323s] GC(150) Metaspace: 62606K->62606K(1107968K)
[2020-01-27T13:57:16.979+0400][3064.323s] GC(150) Pause Young (Allocation Failure) 272M->189M(490M) 9.733ms
[2020-01-27T13:57:16.979+0400][3064.323s] GC(150) User=0.00s Sys=0.00s Real=0.01s
[2020-01-27T13:58:06.501+0400][3113.846s] GC(151) Pause Young (Allocation Failure)
[2020-01-27T13:58:06.501+0400][3113.846s] GC(151) Using 4 workers of 4 for evacuation
[2020-01-27T13:58:06.510+0400][3113.854s] GC(151) ParNew: 109248K->21824K(109248K)
[2020-01-27T13:58:06.510+0400][3113.854s] GC(151) CMS: 171914K->178589K(393216K)
[2020-01-27T13:58:06.510+0400][3113.854s] GC(151) Metaspace: 62607K->62607K(1107968K)
[2020-01-27T13:58:06.510+0400][3113.854s] GC(151) Pause Young (Allocation Failure) 274M->195M(490M) 8.610ms
[2020-01-27T13:58:06.510+0400][3113.854s] GC(151) User=0.00s Sys=0.00s Real=0.01s
[2020-01-27T13:59:21.271+0400][3188.616s] GC(152) Pause Young (Allocation Failure)
[2020-01-27T13:59:21.271+0400][3188.616s] GC(152) Using 4 workers of 4 for evacuation
[2020-01-27T13:59:21.280+0400][3188.625s] GC(152) ParNew: 109248K->21824K(109248K)
[2020-01-27T13:59:21.280+0400][3188.625s] GC(152) CMS: 178589K->179753K(393216K)
[2020-01-27T13:59:21.280+0400][3188.625s] GC(152) Metaspace: 62613K->62613K(1107968K)
[2020-01-27T13:59:21.280+0400][3188.625s] GC(152) Pause Young (Allocation Failure) 281M->196M(490M) 8.812ms
[2020-01-27T13:59:21.280+0400][3188.625s] GC(152) User=0.06s Sys=0.00s Real=0.01s
[2020-01-27T13:59:43.136+0400][3210.480s] GC(153) Pause Young (Allocation Failure)
[2020-01-27T13:59:43.136+0400][3210.480s] GC(153) Using 4 workers of 4 for evacuation
[2020-01-27T13:59:43.149+0400][3210.493s] GC(153) ParNew: 109248K->21824K(109248K)
[2020-01-27T13:59:43.149+0400][3210.493s] GC(153) CMS: 179753K->187708K(393216K)
[2020-01-27T13:59:43.149+0400][3210.493s] GC(153) Metaspace: 62616K->62616K(1107968K)
[2020-01-27T13:59:43.149+0400][3210.493s] GC(153) Pause Young (Allocation Failure) 282M->204M(490M) 13.113ms
[2020-01-27T13:59:43.149+0400][3210.493s] GC(153) User=0.06s Sys=0.00s Real=0.01s
[2020-01-27T13:59:43.486+0400][3210.831s] GC(154) Pause Young (Allocation Failure)
[2020-01-27T13:59:43.486+0400][3210.831s] GC(154) Using 4 workers of 4 for evacuation
[2020-01-27T13:59:43.490+0400][3210.834s] GC(154) ParNew: 109246K->15428K(109248K)
[2020-01-27T13:59:43.490+0400][3210.835s] GC(154) CMS: 187708K->187708K(393216K)
[2020-01-27T13:59:43.490+0400][3210.835s] GC(154) Metaspace: 62616K->62616K(1107968K)
[2020-01-27T13:59:43.490+0400][3210.835s] GC(154) Pause Young (Allocation Failure) 289M->198M(490M) 3.999ms
[2020-01-27T13:59:43.490+0400][3210.835s] GC(154) User=0.00s Sys=0.00s Real=0.00s
[2020-01-27T15:35:30.969+0400][8958.313s] GC(155) Pause Young (Allocation Failure)
[2020-01-27T15:35:30.970+0400][8958.314s] GC(155) Using 4 workers of 4 for evacuation
[2020-01-27T15:35:31.004+0400][8958.348s] GC(155) ParNew: 102852K->21824K(109248K)
[2020-01-27T15:35:31.004+0400][8958.349s] GC(155) CMS: 187708K->189313K(393216K)
[2020-01-27T15:35:31.004+0400][8958.349s] GC(155) Metaspace: 62669K->62669K(1107968K)
[2020-01-27T15:35:31.005+0400][8958.349s] GC(155) Pause Young (Allocation Failure) 283M->206M(490M) 35.447ms
[2020-01-27T15:35:31.005+0400][8958.349s] GC(155) User=0.13s Sys=0.00s Real=0.04s
