8797091069982;8797091790878;8797533209195;mediaContainer;;false
8797091135518;8797091823646;8797533241963;mediaContainer;;false
8797091201054;8797091856414;8797533274731;mediaContainer;;false
8797091266590;8797091889182;8797533307499;mediaContainer;;false
