{
  "initArgs":{"ignoreCase":"true"},
  "initializedOn":"2020-01-27T09:25:21.679Z",
  "managedMap":{
    "Brillen":["Sonnenbrillen"],
    "Hüte":["Mützen"],
    "Schuhe":["Schuh"],
    "Sneaker":["Schuh"],
    "Sonnenbrille":["Sonnenbrillen"],
    "Turnschuhe":["Schuh"]}}