8796718333982;8796727672862;8796483617387;mediaContainer;;false
8796718399518;8796727705630;8796483650155;mediaContainer;;false
8796718465054;8796727738398;8796483682923;mediaContainer;;false
8796718530590;8796727771166;8796483715691;mediaContainer;;false
8796718596126;8796727803934;8796483748459;mediaContainer;;false
8796718661662;8796727836702;8796483781227;mediaContainer;;false
8796718727198;8796727869470;8796483813995;mediaContainer;;false
8796718792734;8796727902238;8796483846763;mediaContainer;;false
8796718858270;8796727935006;8796483879531;mediaContainer;;false
8796718923806;8796727967774;8796483912299;mediaContainer;;false
8796718989342;8796728000542;8796483945067;mediaContainer;;false
8796719054878;8796728033310;8796483977835;mediaContainer;;false
8796719120414;8796728066078;8796484010603;mediaContainer;;false
8796719185950;8796728098846;8796484043371;mediaContainer;;false
8796719251486;8796728131614;8796484076139;mediaContainer;;false
8796719317022;8796728164382;8796484108907;mediaContainer;;false
8796719382558;8796728197150;8796484141675;mediaContainer;;false
8796719448094;8796728229918;8796484174443;mediaContainer;;false
8796719513630;8796728262686;8796484207211;mediaContainer;;false
8796719579166;8796728295454;8796484239979;mediaContainer;;false
8796719644702;8796728328222;8796484272747;mediaContainer;;false
8796719710238;8796728360990;8796484305515;mediaContainer;;false
8796719775774;8796728393758;8796484338283;mediaContainer;;false
8796719841310;8796728426526;8796484371051;mediaContainer;;false
8796719906846;8796728459294;8796484403819;mediaContainer;;false
8796719972382;8796728492062;8796484436587;mediaContainer;;false
8796720037918;8796728524830;8796484469355;mediaContainer;;false
8796720103454;8796728557598;8796484502123;mediaContainer;;false
8796720168990;8796728590366;8796484534891;mediaContainer;;false
8796720234526;8796728623134;8796484567659;mediaContainer;;false
8796720300062;8796728655902;8796484600427;mediaContainer;;false
8796720365598;8796728688670;8796484633195;mediaContainer;;false
8796720431134;8796728721438;8796484665963;mediaContainer;;false
8796720496670;8796728754206;8796484698731;mediaContainer;;false
8796720562206;8796728786974;8796484731499;mediaContainer;;false
8796720627742;8796728819742;8796484764267;mediaContainer;;false
8796720693278;8796728852510;8796484797035;mediaContainer;;false
8796720758814;8796728885278;8796484829803;mediaContainer;;false
8796720824350;8796728918046;8796484862571;mediaContainer;;false
8796720889886;8796728950814;8796484895339;mediaContainer;;false
8796720955422;8796728983582;8796484928107;mediaContainer;;false
8796721020958;8796729016350;8796484960875;mediaContainer;;false
8796721086494;8796729049118;8796484993643;mediaContainer;;false
8796721152030;8796729081886;8796485026411;mediaContainer;;false
8796721217566;8796729114654;8796485059179;mediaContainer;;false
8796721283102;8796729147422;8796485091947;mediaContainer;;false
8796721348638;8796729180190;8796485124715;mediaContainer;;false
8796721414174;8796729212958;8796485157483;mediaContainer;;false
8796721479710;8796729245726;8796485190251;mediaContainer;;false
8796721545246;8796729278494;8796485223019;mediaContainer;;false
8796721610782;8796729311262;8796485255787;mediaContainer;;false
8796721676318;8796729344030;8796485288555;mediaContainer;;false
8796721741854;8796729376798;8796485321323;mediaContainer;;false
8796721807390;8796729409566;8796485354091;mediaContainer;;false
8796721872926;8796729442334;8796485386859;mediaContainer;;false
8796721938462;8796729475102;8796485419627;mediaContainer;;false
8796722003998;8796729507870;8796485452395;mediaContainer;;false
8796722069534;8796729540638;8796485485163;mediaContainer;;false
8796722135070;8796729573406;8796485517931;mediaContainer;;false
8796722200606;8796729606174;8796485550699;mediaContainer;;false
8796722266142;8796729638942;8796485583467;mediaContainer;;false
8796722331678;8796729671710;8796485616235;mediaContainer;;false
8796722397214;8796729704478;8796485649003;mediaContainer;;false
